^C:\USERS\GARRETH\DOCUMENTS\BOMBERMAN-MULTIVERSEV2\AUDIO.CPP|C:\USERS\GARRETH\DOCUMENTS\BOMBERMAN-MULTIVERSEV2\BOMB.CPP|C:\USERS\GARRETH\DOCUMENTS\BOMBERMAN-MULTIVERSEV2\BOMBERMAN.CPP|C:\USERS\GARRETH\DOCUMENTS\BOMBERMAN-MULTIVERSEV2\CONSOLE.CPP|C:\USERS\GARRETH\DOCUMENTS\BOMBERMAN-MULTIVERSEV2\DASHBOARD.CPP|C:\USERS\GARRETH\DOCUMENTS\BOMBERMAN-MULTIVERSEV2\DESTRUCTIBLEBLOCK.CPP|C:\USERS\GARRETH\DOCUMENTS\BOMBERMAN-MULTIVERSEV2\ENTITY.CPP|C:\USERS\GARRETH\DOCUMENTS\BOMBERMAN-MULTIVERSEV2\EXPLOSION.CPP|C:\USERS\GARRETH\DOCUMENTS\BOMBERMAN-MULTIVERSEV2\GAME.CPP|C:\USERS\GARRETH\DOCUMENTS\BOMBERMAN-MULTIVERSEV2\GRAPHICS.CPP|C:\USERS\GARRETH\DOCUMENTS\BOMBERMAN-MULTIVERSEV2\IMAGE.CPP|C:\USERS\GARRETH\DOCUMENTS\BOMBERMAN-MULTIVERSEV2\INPUT.CPP|C:\USERS\GARRETH\DOCUMENTS\BOMBERMAN-MULTIVERSEV2\INPUTDIALOG.CPP|C:\USERS\GARRETH\DOCUMENTS\BOMBERMAN-MULTIVERSEV2\MENU.CPP|C:\USERS\GARRETH\DOCUMENTS\BOMBERMAN-MULTIVERSEV2\MESSAGEDIALOG.CPP|C:\USERS\GARRETH\DOCUMENTS\BOMBERMAN-MULTIVERSEV2\PLAYER.CPP|C:\USERS\GARRETH\DOCUMENTS\BOMBERMAN-MULTIVERSEV2\POWERUP.CPP|C:\USERS\GARRETH\DOCUMENTS\BOMBERMAN-MULTIVERSEV2\TEXT.CPP|C:\USERS\GARRETH\DOCUMENTS\BOMBERMAN-MULTIVERSEV2\TEXTDX.CPP|C:\USERS\GARRETH\DOCUMENTS\BOMBERMAN-MULTIVERSEV2\TEXTUREMANAGER.CPP|C:\USERS\GARRETH\DOCUMENTS\BOMBERMAN-MULTIVERSEV2\WINMAIN.CPP
C:\USERS\GARRETH\DOCUMENTS\BOMBERMAN-MULTIVERSEV2\DEBUG\VC120.PDB
C:\USERS\GARRETH\DOCUMENTS\BOMBERMAN-MULTIVERSEV2\DEBUG\VC120.IDB
C:\USERS\GARRETH\DOCUMENTS\BOMBERMAN-MULTIVERSEV2\DEBUG\BOMB.OBJ
C:\USERS\GARRETH\DOCUMENTS\BOMBERMAN-MULTIVERSEV2\DEBUG\CONSOLE.OBJ
C:\USERS\GARRETH\DOCUMENTS\BOMBERMAN-MULTIVERSEV2\DEBUG\DASHBOARD.OBJ
C:\USERS\GARRETH\DOCUMENTS\BOMBERMAN-MULTIVERSEV2\DEBUG\DESTRUCTIBLEBLOCK.OBJ
C:\USERS\GARRETH\DOCUMENTS\BOMBERMAN-MULTIVERSEV2\DEBUG\ENTITY.OBJ
C:\USERS\GARRETH\DOCUMENTS\BOMBERMAN-MULTIVERSEV2\DEBUG\EXPLOSION.OBJ
C:\USERS\GARRETH\DOCUMENTS\BOMBERMAN-MULTIVERSEV2\DEBUG\GAME.OBJ
C:\USERS\GARRETH\DOCUMENTS\BOMBERMAN-MULTIVERSEV2\DEBUG\GRAPHICS.OBJ
C:\USERS\GARRETH\DOCUMENTS\BOMBERMAN-MULTIVERSEV2\DEBUG\INPUTDIALOG.OBJ
C:\USERS\GARRETH\DOCUMENTS\BOMBERMAN-MULTIVERSEV2\DEBUG\MENU.OBJ
C:\USERS\GARRETH\DOCUMENTS\BOMBERMAN-MULTIVERSEV2\DEBUG\MESSAGEDIALOG.OBJ
C:\USERS\GARRETH\DOCUMENTS\BOMBERMAN-MULTIVERSEV2\DEBUG\PLAYER.OBJ
C:\USERS\GARRETH\DOCUMENTS\BOMBERMAN-MULTIVERSEV2\DEBUG\POWERUP.OBJ
C:\USERS\GARRETH\DOCUMENTS\BOMBERMAN-MULTIVERSEV2\DEBUG\TEXT.OBJ
C:\USERS\GARRETH\DOCUMENTS\BOMBERMAN-MULTIVERSEV2\DEBUG\TEXTUREMANAGER.OBJ
C:\USERS\GARRETH\DOCUMENTS\BOMBERMAN-MULTIVERSEV2\DEBUG\INPUT.OBJ
C:\USERS\GARRETH\DOCUMENTS\BOMBERMAN-MULTIVERSEV2\DEBUG\BOMBERMAN.OBJ
C:\USERS\GARRETH\DOCUMENTS\BOMBERMAN-MULTIVERSEV2\DEBUG\IMAGE.OBJ
C:\USERS\GARRETH\DOCUMENTS\BOMBERMAN-MULTIVERSEV2\DEBUG\TEXTDX.OBJ
C:\USERS\GARRETH\DOCUMENTS\BOMBERMAN-MULTIVERSEV2\DEBUG\WINMAIN.OBJ
C:\USERS\GARRETH\DOCUMENTS\BOMBERMAN-MULTIVERSEV2\DEBUG\AUDIO.OBJ
^C:\USERS\GARRETH\DOCUMENTS\BOMBERMAN-MULTIVERSEV2\AUDIO.CPP
C:\USERS\GARRETH\DOCUMENTS\BOMBERMAN-MULTIVERSEV2\DEBUG\VC120.PDB
^C:\USERS\GARRETH\DOCUMENTS\BOMBERMAN-MULTIVERSEV2\BOMB.CPP
C:\USERS\GARRETH\DOCUMENTS\BOMBERMAN-MULTIVERSEV2\DEBUG\VC120.PDB
^C:\USERS\GARRETH\DOCUMENTS\BOMBERMAN-MULTIVERSEV2\CONSOLE.CPP
C:\USERS\GARRETH\DOCUMENTS\BOMBERMAN-MULTIVERSEV2\DEBUG\VC120.PDB
^C:\USERS\GARRETH\DOCUMENTS\BOMBERMAN-MULTIVERSEV2\DASHBOARD.CPP
C:\USERS\GARRETH\DOCUMENTS\BOMBERMAN-MULTIVERSEV2\DEBUG\VC120.PDB
^C:\USERS\GARRETH\DOCUMENTS\BOMBERMAN-MULTIVERSEV2\DESTRUCTIBLEBLOCK.CPP
C:\USERS\GARRETH\DOCUMENTS\BOMBERMAN-MULTIVERSEV2\DEBUG\VC120.PDB
^C:\USERS\GARRETH\DOCUMENTS\BOMBERMAN-MULTIVERSEV2\ENTITY.CPP
C:\USERS\GARRETH\DOCUMENTS\BOMBERMAN-MULTIVERSEV2\DEBUG\VC120.PDB
^C:\USERS\GARRETH\DOCUMENTS\BOMBERMAN-MULTIVERSEV2\EXPLOSION.CPP
C:\USERS\GARRETH\DOCUMENTS\BOMBERMAN-MULTIVERSEV2\DEBUG\VC120.PDB
C:\USERS\GARRETH\DOCUMENTS\BOMBERMAN-MULTIVERSEV2\DEBUG\VC120.IDB
C:\USERS\GARRETH\DOCUMENTS\BOMBERMAN-MULTIVERSEV2\DEBUG\EXPLOSION.OBJ
^C:\USERS\GARRETH\DOCUMENTS\BOMBERMAN-MULTIVERSEV2\GAME.CPP
C:\USERS\GARRETH\DOCUMENTS\BOMBERMAN-MULTIVERSEV2\DEBUG\VC120.PDB
^C:\USERS\GARRETH\DOCUMENTS\BOMBERMAN-MULTIVERSEV2\GRAPHICS.CPP
C:\USERS\GARRETH\DOCUMENTS\BOMBERMAN-MULTIVERSEV2\DEBUG\VC120.PDB
^C:\USERS\GARRETH\DOCUMENTS\BOMBERMAN-MULTIVERSEV2\INPUTDIALOG.CPP
C:\USERS\GARRETH\DOCUMENTS\BOMBERMAN-MULTIVERSEV2\DEBUG\VC120.PDB
^C:\USERS\GARRETH\DOCUMENTS\BOMBERMAN-MULTIVERSEV2\MENU.CPP
C:\USERS\GARRETH\DOCUMENTS\BOMBERMAN-MULTIVERSEV2\DEBUG\VC120.PDB
^C:\USERS\GARRETH\DOCUMENTS\BOMBERMAN-MULTIVERSEV2\MESSAGEDIALOG.CPP
C:\USERS\GARRETH\DOCUMENTS\BOMBERMAN-MULTIVERSEV2\DEBUG\VC120.PDB
^C:\USERS\GARRETH\DOCUMENTS\BOMBERMAN-MULTIVERSEV2\PLAYER.CPP
C:\USERS\GARRETH\DOCUMENTS\BOMBERMAN-MULTIVERSEV2\DEBUG\VC120.PDB
^C:\USERS\GARRETH\DOCUMENTS\BOMBERMAN-MULTIVERSEV2\POWERUP.CPP
C:\USERS\GARRETH\DOCUMENTS\BOMBERMAN-MULTIVERSEV2\DEBUG\VC120.PDB
^C:\USERS\GARRETH\DOCUMENTS\BOMBERMAN-MULTIVERSEV2\TEXT.CPP
C:\USERS\GARRETH\DOCUMENTS\BOMBERMAN-MULTIVERSEV2\DEBUG\VC120.PDB
^C:\USERS\GARRETH\DOCUMENTS\BOMBERMAN-MULTIVERSEV2\TEXTUREMANAGER.CPP
C:\USERS\GARRETH\DOCUMENTS\BOMBERMAN-MULTIVERSEV2\DEBUG\VC120.PDB
^C:\USERS\GARRETH\DOCUMENTS\BOMBERMAN-MULTIVERSEV2\INPUT.CPP
C:\USERS\GARRETH\DOCUMENTS\BOMBERMAN-MULTIVERSEV2\DEBUG\VC120.PDB
^C:\USERS\GARRETH\DOCUMENTS\BOMBERMAN-MULTIVERSEV2\BOMBERMAN.CPP
C:\USERS\GARRETH\DOCUMENTS\BOMBERMAN-MULTIVERSEV2\DEBUG\VC120.PDB
C:\USERS\GARRETH\DOCUMENTS\BOMBERMAN-MULTIVERSEV2\DEBUG\VC120.IDB
^C:\USERS\GARRETH\DOCUMENTS\BOMBERMAN-MULTIVERSEV2\IMAGE.CPP
C:\USERS\GARRETH\DOCUMENTS\BOMBERMAN-MULTIVERSEV2\DEBUG\VC120.PDB
^C:\USERS\GARRETH\DOCUMENTS\BOMBERMAN-MULTIVERSEV2\TEXTDX.CPP
C:\USERS\GARRETH\DOCUMENTS\BOMBERMAN-MULTIVERSEV2\DEBUG\VC120.PDB
^C:\USERS\GARRETH\DOCUMENTS\BOMBERMAN-MULTIVERSEV2\WINMAIN.CPP
C:\USERS\GARRETH\DOCUMENTS\BOMBERMAN-MULTIVERSEV2\DEBUG\VC120.PDB
^C:\USERS\GARRETH\DESKTOP\SPACEWARSERVER\NET.CPP
C:\USERS\GARRETH\DOCUMENTS\BOMBERMAN-MULTIVERSEV2\DEBUG\VC120.PDB
C:\USERS\GARRETH\DOCUMENTS\BOMBERMAN-MULTIVERSEV2\DEBUG\VC120.IDB
C:\USERS\GARRETH\DOCUMENTS\BOMBERMAN-MULTIVERSEV2\DEBUG\NET.OBJ
^C:\USERS\GARRETH\DOCUMENTS\BOMBERMAN-MULTIVERSEV2\BOMB.CPP|C:\USERS\GARRETH\DOCUMENTS\BOMBERMAN-MULTIVERSEV2\BOMBERMAN.CPP|C:\USERS\GARRETH\DOCUMENTS\BOMBERMAN-MULTIVERSEV2\DESTRUCTIBLEBLOCK.CPP|C:\USERS\GARRETH\DOCUMENTS\BOMBERMAN-MULTIVERSEV2\ENTITY.CPP|C:\USERS\GARRETH\DOCUMENTS\BOMBERMAN-MULTIVERSEV2\EXPLOSION.CPP|C:\USERS\GARRETH\DOCUMENTS\BOMBERMAN-MULTIVERSEV2\GAME.CPP|C:\USERS\GARRETH\DOCUMENTS\BOMBERMAN-MULTIVERSEV2\PLAYER.CPP|C:\USERS\GARRETH\DOCUMENTS\BOMBERMAN-MULTIVERSEV2\POWERUP.CPP|C:\USERS\GARRETH\DOCUMENTS\BOMBERMAN-MULTIVERSEV2\WINMAIN.CPP
C:\USERS\GARRETH\DOCUMENTS\BOMBERMAN-MULTIVERSEV2\DEBUG\VC120.PDB
C:\USERS\GARRETH\DOCUMENTS\BOMBERMAN-MULTIVERSEV2\DEBUG\VC120.IDB
C:\USERS\GARRETH\DOCUMENTS\BOMBERMAN-MULTIVERSEV2\DEBUG\DESTRUCTIBLEBLOCK.OBJ
C:\USERS\GARRETH\DOCUMENTS\BOMBERMAN-MULTIVERSEV2\DEBUG\POWERUP.OBJ
C:\USERS\GARRETH\DOCUMENTS\BOMBERMAN-MULTIVERSEV2\DEBUG\ENTITY.OBJ
^C:\USERS\GARRETH\DOCUMENTS\BOMBERMAN-MULTIVERSEV2\BOMB.CPP|C:\USERS\GARRETH\DOCUMENTS\BOMBERMAN-MULTIVERSEV2\BOMBERMAN.CPP|C:\USERS\GARRETH\DOCUMENTS\BOMBERMAN-MULTIVERSEV2\EXPLOSION.CPP|C:\USERS\GARRETH\DOCUMENTS\BOMBERMAN-MULTIVERSEV2\GAME.CPP|C:\USERS\GARRETH\DOCUMENTS\BOMBERMAN-MULTIVERSEV2\PLAYER.CPP|C:\USERS\GARRETH\DOCUMENTS\BOMBERMAN-MULTIVERSEV2\WINMAIN.CPP
C:\USERS\GARRETH\DOCUMENTS\BOMBERMAN-MULTIVERSEV2\DEBUG\VC120.PDB
C:\USERS\GARRETH\DOCUMENTS\BOMBERMAN-MULTIVERSEV2\DEBUG\VC120.IDB
C:\USERS\GARRETH\DOCUMENTS\BOMBERMAN-MULTIVERSEV2\DEBUG\BOMBERMAN.OBJ
C:\USERS\GARRETH\DOCUMENTS\BOMBERMAN-MULTIVERSEV2\DEBUG\EXPLOSION.OBJ
C:\USERS\GARRETH\DOCUMENTS\BOMBERMAN-MULTIVERSEV2\DEBUG\BOMB.OBJ
C:\USERS\GARRETH\DOCUMENTS\BOMBERMAN-MULTIVERSEV2\DEBUG\GAME.OBJ
C:\USERS\GARRETH\DOCUMENTS\BOMBERMAN-MULTIVERSEV2\DEBUG\PLAYER.OBJ
C:\USERS\GARRETH\DOCUMENTS\BOMBERMAN-MULTIVERSEV2\DEBUG\WINMAIN.OBJ
^C:\USERS\GARRETH\DOCUMENTS\BOMBERMAN-MULTIVERSEV2\BOMB.CPP|C:\USERS\GARRETH\DOCUMENTS\BOMBERMAN-MULTIVERSEV2\BOMBERMAN.CPP|C:\USERS\GARRETH\DOCUMENTS\BOMBERMAN-MULTIVERSEV2\DESTRUCTIBLEBLOCK.CPP|C:\USERS\GARRETH\DOCUMENTS\BOMBERMAN-MULTIVERSEV2\EXPLOSION.CPP|C:\USERS\GARRETH\DOCUMENTS\BOMBERMAN-MULTIVERSEV2\GAME.CPP|C:\USERS\GARRETH\DOCUMENTS\BOMBERMAN-MULTIVERSEV2\PLAYER.CPP|C:\USERS\GARRETH\DOCUMENTS\BOMBERMAN-MULTIVERSEV2\POWERUP.CPP|C:\USERS\GARRETH\DOCUMENTS\BOMBERMAN-MULTIVERSEV2\WINMAIN.CPP
C:\USERS\GARRETH\DOCUMENTS\BOMBERMAN-MULTIVERSEV2\DEBUG\VC120.PDB
C:\USERS\GARRETH\DOCUMENTS\BOMBERMAN-MULTIVERSEV2\DEBUG\VC120.IDB
C:\USERS\GARRETH\DOCUMENTS\BOMBERMAN-MULTIVERSEV2\DEBUG\DESTRUCTIBLEBLOCK.OBJ
C:\USERS\GARRETH\DOCUMENTS\BOMBERMAN-MULTIVERSEV2\DEBUG\POWERUP.OBJ
C:\USERS\GARRETH\DOCUMENTS\BOMBERMAN-MULTIVERSEV2\DEBUG\BOMBERMAN.OBJ
C:\USERS\GARRETH\DOCUMENTS\BOMBERMAN-MULTIVERSEV2\DEBUG\BOMB.OBJ
C:\USERS\GARRETH\DOCUMENTS\BOMBERMAN-MULTIVERSEV2\DEBUG\GAME.OBJ
C:\USERS\GARRETH\DOCUMENTS\BOMBERMAN-MULTIVERSEV2\DEBUG\PLAYER.OBJ
C:\USERS\GARRETH\DOCUMENTS\BOMBERMAN-MULTIVERSEV2\DEBUG\WINMAIN.OBJ
^C:\USERS\GARRETH\DOCUMENTS\BOMBERMAN-MULTIVERSEV2\BOMBERMAN.CPP|C:\USERS\GARRETH\DOCUMENTS\BOMBERMAN-MULTIVERSEV2\PLAYER.CPP|C:\USERS\GARRETH\DOCUMENTS\BOMBERMAN-MULTIVERSEV2\WINMAIN.CPP
C:\USERS\GARRETH\DOCUMENTS\BOMBERMAN-MULTIVERSEV2\DEBUG\VC120.PDB
C:\USERS\GARRETH\DOCUMENTS\BOMBERMAN-MULTIVERSEV2\DEBUG\VC120.IDB
C:\USERS\GARRETH\DOCUMENTS\BOMBERMAN-MULTIVERSEV2\DEBUG\BOMBERMAN.OBJ
C:\USERS\GARRETH\DOCUMENTS\BOMBERMAN-MULTIVERSEV2\DEBUG\PLAYER.OBJ
C:\USERS\GARRETH\DOCUMENTS\BOMBERMAN-MULTIVERSEV2\DEBUG\WINMAIN.OBJ
^C:\USERS\GARRETH\DOCUMENTS\BOMBERMAN-MULTIVERSEV2\BOMBERMANSERVER\AUDIO.CPP|C:\USERS\GARRETH\DOCUMENTS\BOMBERMAN-MULTIVERSEV2\BOMBERMANSERVER\BOMB.CPP|C:\USERS\GARRETH\DOCUMENTS\BOMBERMAN-MULTIVERSEV2\BOMBERMANSERVER\BOMBERMAN.CPP|C:\USERS\GARRETH\DOCUMENTS\BOMBERMAN-MULTIVERSEV2\BOMBERMANSERVER\CONSOLE.CPP|C:\USERS\GARRETH\DOCUMENTS\BOMBERMAN-MULTIVERSEV2\BOMBERMANSERVER\DASHBOARD.CPP|C:\USERS\GARRETH\DOCUMENTS\BOMBERMAN-MULTIVERSEV2\BOMBERMANSERVER\DESTRUCTIBLEBLOCK.CPP|C:\USERS\GARRETH\DOCUMENTS\BOMBERMAN-MULTIVERSEV2\BOMBERMANSERVER\ENTITY.CPP|C:\USERS\GARRETH\DOCUMENTS\BOMBERMAN-MULTIVERSEV2\BOMBERMANSERVER\EXPLOSION.CPP|C:\USERS\GARRETH\DOCUMENTS\BOMBERMAN-MULTIVERSEV2\BOMBERMANSERVER\GAME.CPP|C:\USERS\GARRETH\DOCUMENTS\BOMBERMAN-MULTIVERSEV2\BOMBERMANSERVER\GRAPHICS.CPP|C:\USERS\GARRETH\DOCUMENTS\BOMBERMAN-MULTIVERSEV2\BOMBERMANSERVER\IMAGE.CPP|C:\USERS\GARRETH\DOCUMENTS\BOMBERMAN-MULTIVERSEV2\BOMBERMANSERVER\INPUT.CPP|C:\USERS\GARRETH\DOCUMENTS\BOMBERMAN-MULTIVERSEV2\BOMBERMANSERVER\INPUTDIALOG.CPP|C:\USERS\GARRETH\DOCUMENTS\BOMBERMAN-MULTIVERSEV2\BOMBERMANSERVER\MENU.CPP|C:\USERS\GARRETH\DOCUMENTS\BOMBERMAN-MULTIVERSEV2\BOMBERMANSERVER\MESSAGEDIALOG.CPP|C:\USERS\GARRETH\DOCUMENTS\BOMBERMAN-MULTIVERSEV2\BOMBERMANSERVER\PLAYER.CPP|C:\USERS\GARRETH\DOCUMENTS\BOMBERMAN-MULTIVERSEV2\BOMBERMANSERVER\POWERUP.CPP|C:\USERS\GARRETH\DOCUMENTS\BOMBERMAN-MULTIVERSEV2\BOMBERMANSERVER\TEXT.CPP|C:\USERS\GARRETH\DOCUMENTS\BOMBERMAN-MULTIVERSEV2\BOMBERMANSERVER\TEXTDX.CPP|C:\USERS\GARRETH\DOCUMENTS\BOMBERMAN-MULTIVERSEV2\BOMBERMANSERVER\TEXTUREMANAGER.CPP|C:\USERS\GARRETH\DOCUMENTS\BOMBERMAN-MULTIVERSEV2\BOMBERMANSERVER\WINMAIN.CPP|C:\USERS\GARRETH\DOCUMENTS\DESKTOP\SPACEWARSERVER\NET.CPP
C:\USERS\GARRETH\DOCUMENTS\BOMBERMAN-MULTIVERSEV2\BOMBERMANSERVER\DEBUG\VC120.PDB
C:\USERS\GARRETH\DOCUMENTS\BOMBERMAN-MULTIVERSEV2\BOMBERMANSERVER\DEBUG\VC120.IDB
C:\USERS\GARRETH\DOCUMENTS\BOMBERMAN-MULTIVERSEV2\BOMBERMANSERVER\DEBUG\BOMB.OBJ
C:\USERS\GARRETH\DOCUMENTS\BOMBERMAN-MULTIVERSEV2\BOMBERMANSERVER\DEBUG\CONSOLE.OBJ
C:\USERS\GARRETH\DOCUMENTS\BOMBERMAN-MULTIVERSEV2\BOMBERMANSERVER\DEBUG\DASHBOARD.OBJ
C:\USERS\GARRETH\DOCUMENTS\BOMBERMAN-MULTIVERSEV2\BOMBERMANSERVER\DEBUG\DESTRUCTIBLEBLOCK.OBJ
C:\USERS\GARRETH\DOCUMENTS\BOMBERMAN-MULTIVERSEV2\BOMBERMANSERVER\DEBUG\ENTITY.OBJ
C:\USERS\GARRETH\DOCUMENTS\BOMBERMAN-MULTIVERSEV2\BOMBERMANSERVER\DEBUG\EXPLOSION.OBJ
C:\USERS\GARRETH\DOCUMENTS\BOMBERMAN-MULTIVERSEV2\BOMBERMANSERVER\DEBUG\GAME.OBJ
C:\USERS\GARRETH\DOCUMENTS\BOMBERMAN-MULTIVERSEV2\BOMBERMANSERVER\DEBUG\GRAPHICS.OBJ
C:\USERS\GARRETH\DOCUMENTS\BOMBERMAN-MULTIVERSEV2\BOMBERMANSERVER\DEBUG\INPUTDIALOG.OBJ
C:\USERS\GARRETH\DOCUMENTS\BOMBERMAN-MULTIVERSEV2\BOMBERMANSERVER\DEBUG\MENU.OBJ
C:\USERS\GARRETH\DOCUMENTS\BOMBERMAN-MULTIVERSEV2\BOMBERMANSERVER\DEBUG\MESSAGEDIALOG.OBJ
C:\USERS\GARRETH\DOCUMENTS\BOMBERMAN-MULTIVERSEV2\BOMBERMANSERVER\DEBUG\PLAYER.OBJ
C:\USERS\GARRETH\DOCUMENTS\BOMBERMAN-MULTIVERSEV2\BOMBERMANSERVER\DEBUG\POWERUP.OBJ
C:\USERS\GARRETH\DOCUMENTS\BOMBERMAN-MULTIVERSEV2\BOMBERMANSERVER\DEBUG\TEXT.OBJ
C:\USERS\GARRETH\DOCUMENTS\BOMBERMAN-MULTIVERSEV2\BOMBERMANSERVER\DEBUG\TEXTUREMANAGER.OBJ
C:\USERS\GARRETH\DOCUMENTS\BOMBERMAN-MULTIVERSEV2\BOMBERMANSERVER\DEBUG\INPUT.OBJ
C:\USERS\GARRETH\DOCUMENTS\BOMBERMAN-MULTIVERSEV2\BOMBERMANSERVER\DEBUG\BOMBERMAN.OBJ
C:\USERS\GARRETH\DOCUMENTS\BOMBERMAN-MULTIVERSEV2\BOMBERMANSERVER\DEBUG\IMAGE.OBJ
C:\USERS\GARRETH\DOCUMENTS\BOMBERMAN-MULTIVERSEV2\BOMBERMANSERVER\DEBUG\TEXTDX.OBJ
C:\USERS\GARRETH\DOCUMENTS\BOMBERMAN-MULTIVERSEV2\BOMBERMANSERVER\DEBUG\WINMAIN.OBJ
C:\USERS\GARRETH\DOCUMENTS\BOMBERMAN-MULTIVERSEV2\BOMBERMANSERVER\DEBUG\AUDIO.OBJ
^C:\USERS\GARRETH\DOCUMENTS\DESKTOP\SPACEWARSERVER\NET.CPP
C:\USERS\GARRETH\DOCUMENTS\BOMBERMAN-MULTIVERSEV2\BOMBERMANSERVER\DEBUG\VC120.PDB
^C:\USERS\GARRETH\DOCUMENTS\BOMBERMAN-MULTIVERSEV2\BOMBERMANSERVER\AUDIO.CPP
C:\USERS\GARRETH\DOCUMENTS\BOMBERMAN-MULTIVERSEV2\BOMBERMANSERVER\DEBUG\VC120.PDB
^C:\USERS\GARRETH\DOCUMENTS\BOMBERMAN-MULTIVERSEV2\BOMBERMANSERVER\BOMB.CPP
C:\USERS\GARRETH\DOCUMENTS\BOMBERMAN-MULTIVERSEV2\BOMBERMANSERVER\DEBUG\VC120.PDB
^C:\USERS\GARRETH\DOCUMENTS\BOMBERMAN-MULTIVERSEV2\BOMBERMANSERVER\CONSOLE.CPP
C:\USERS\GARRETH\DOCUMENTS\BOMBERMAN-MULTIVERSEV2\BOMBERMANSERVER\DEBUG\VC120.PDB
^C:\USERS\GARRETH\DOCUMENTS\BOMBERMAN-MULTIVERSEV2\BOMBERMANSERVER\DASHBOARD.CPP
C:\USERS\GARRETH\DOCUMENTS\BOMBERMAN-MULTIVERSEV2\BOMBERMANSERVER\DEBUG\VC120.PDB
^C:\USERS\GARRETH\DOCUMENTS\BOMBERMAN-MULTIVERSEV2\BOMBERMANSERVER\DESTRUCTIBLEBLOCK.CPP
C:\USERS\GARRETH\DOCUMENTS\BOMBERMAN-MULTIVERSEV2\BOMBERMANSERVER\DEBUG\VC120.PDB
^C:\USERS\GARRETH\DOCUMENTS\BOMBERMAN-MULTIVERSEV2\BOMBERMANSERVER\ENTITY.CPP
C:\USERS\GARRETH\DOCUMENTS\BOMBERMAN-MULTIVERSEV2\BOMBERMANSERVER\DEBUG\VC120.PDB
^C:\USERS\GARRETH\DOCUMENTS\BOMBERMAN-MULTIVERSEV2\BOMBERMANSERVER\EXPLOSION.CPP
C:\USERS\GARRETH\DOCUMENTS\BOMBERMAN-MULTIVERSEV2\BOMBERMANSERVER\DEBUG\VC120.PDB
^C:\USERS\GARRETH\DOCUMENTS\BOMBERMAN-MULTIVERSEV2\BOMBERMANSERVER\GAME.CPP
C:\USERS\GARRETH\DOCUMENTS\BOMBERMAN-MULTIVERSEV2\BOMBERMANSERVER\DEBUG\VC120.PDB
^C:\USERS\GARRETH\DOCUMENTS\BOMBERMAN-MULTIVERSEV2\BOMBERMANSERVER\GRAPHICS.CPP
C:\USERS\GARRETH\DOCUMENTS\BOMBERMAN-MULTIVERSEV2\BOMBERMANSERVER\DEBUG\VC120.PDB
^C:\USERS\GARRETH\DOCUMENTS\BOMBERMAN-MULTIVERSEV2\BOMBERMANSERVER\INPUTDIALOG.CPP
C:\USERS\GARRETH\DOCUMENTS\BOMBERMAN-MULTIVERSEV2\BOMBERMANSERVER\DEBUG\VC120.PDB
^C:\USERS\GARRETH\DOCUMENTS\BOMBERMAN-MULTIVERSEV2\BOMBERMANSERVER\MENU.CPP
C:\USERS\GARRETH\DOCUMENTS\BOMBERMAN-MULTIVERSEV2\BOMBERMANSERVER\DEBUG\VC120.PDB
^C:\USERS\GARRETH\DOCUMENTS\BOMBERMAN-MULTIVERSEV2\BOMBERMANSERVER\MESSAGEDIALOG.CPP
C:\USERS\GARRETH\DOCUMENTS\BOMBERMAN-MULTIVERSEV2\BOMBERMANSERVER\DEBUG\VC120.PDB
^C:\USERS\GARRETH\DOCUMENTS\BOMBERMAN-MULTIVERSEV2\BOMBERMANSERVER\PLAYER.CPP
C:\USERS\GARRETH\DOCUMENTS\BOMBERMAN-MULTIVERSEV2\BOMBERMANSERVER\DEBUG\VC120.PDB
^C:\USERS\GARRETH\DOCUMENTS\BOMBERMAN-MULTIVERSEV2\BOMBERMANSERVER\POWERUP.CPP
C:\USERS\GARRETH\DOCUMENTS\BOMBERMAN-MULTIVERSEV2\BOMBERMANSERVER\DEBUG\VC120.PDB
^C:\USERS\GARRETH\DOCUMENTS\BOMBERMAN-MULTIVERSEV2\BOMBERMANSERVER\TEXT.CPP
C:\USERS\GARRETH\DOCUMENTS\BOMBERMAN-MULTIVERSEV2\BOMBERMANSERVER\DEBUG\VC120.PDB
^C:\USERS\GARRETH\DOCUMENTS\BOMBERMAN-MULTIVERSEV2\BOMBERMANSERVER\TEXTUREMANAGER.CPP
C:\USERS\GARRETH\DOCUMENTS\BOMBERMAN-MULTIVERSEV2\BOMBERMANSERVER\DEBUG\VC120.PDB
^C:\USERS\GARRETH\DOCUMENTS\BOMBERMAN-MULTIVERSEV2\BOMBERMANSERVER\INPUT.CPP
C:\USERS\GARRETH\DOCUMENTS\BOMBERMAN-MULTIVERSEV2\BOMBERMANSERVER\DEBUG\VC120.PDB
^C:\USERS\GARRETH\DOCUMENTS\BOMBERMAN-MULTIVERSEV2\BOMBERMANSERVER\BOMBERMAN.CPP
C:\USERS\GARRETH\DOCUMENTS\BOMBERMAN-MULTIVERSEV2\BOMBERMANSERVER\DEBUG\VC120.PDB
^C:\USERS\GARRETH\DOCUMENTS\BOMBERMAN-MULTIVERSEV2\BOMBERMANSERVER\IMAGE.CPP
C:\USERS\GARRETH\DOCUMENTS\BOMBERMAN-MULTIVERSEV2\BOMBERMANSERVER\DEBUG\VC120.PDB
^C:\USERS\GARRETH\DOCUMENTS\BOMBERMAN-MULTIVERSEV2\BOMBERMANSERVER\TEXTDX.CPP
C:\USERS\GARRETH\DOCUMENTS\BOMBERMAN-MULTIVERSEV2\BOMBERMANSERVER\DEBUG\VC120.PDB
^C:\USERS\GARRETH\DOCUMENTS\BOMBERMAN-MULTIVERSEV2\BOMBERMANSERVER\WINMAIN.CPP
C:\USERS\GARRETH\DOCUMENTS\BOMBERMAN-MULTIVERSEV2\BOMBERMANSERVER\DEBUG\VC120.PDB
^C:\USERS\GARRETH\DOCUMENTS\BOMBERMAN-MULTIVERSEV2\BOMBERMANCLIENT\AUDIO.CPP|C:\USERS\GARRETH\DOCUMENTS\BOMBERMAN-MULTIVERSEV2\BOMBERMANCLIENT\BOMB.CPP|C:\USERS\GARRETH\DOCUMENTS\BOMBERMAN-MULTIVERSEV2\BOMBERMANCLIENT\BOMBERMAN.CPP|C:\USERS\GARRETH\DOCUMENTS\BOMBERMAN-MULTIVERSEV2\BOMBERMANCLIENT\CONSOLE.CPP|C:\USERS\GARRETH\DOCUMENTS\BOMBERMAN-MULTIVERSEV2\BOMBERMANCLIENT\DASHBOARD.CPP|C:\USERS\GARRETH\DOCUMENTS\BOMBERMAN-MULTIVERSEV2\BOMBERMANCLIENT\DESTRUCTIBLEBLOCK.CPP|C:\USERS\GARRETH\DOCUMENTS\BOMBERMAN-MULTIVERSEV2\BOMBERMANCLIENT\ENTITY.CPP|C:\USERS\GARRETH\DOCUMENTS\BOMBERMAN-MULTIVERSEV2\BOMBERMANCLIENT\EXPLOSION.CPP|C:\USERS\GARRETH\DOCUMENTS\BOMBERMAN-MULTIVERSEV2\BOMBERMANCLIENT\GAME.CPP|C:\USERS\GARRETH\DOCUMENTS\BOMBERMAN-MULTIVERSEV2\BOMBERMANCLIENT\GRAPHICS.CPP|C:\USERS\GARRETH\DOCUMENTS\BOMBERMAN-MULTIVERSEV2\BOMBERMANCLIENT\IMAGE.CPP|C:\USERS\GARRETH\DOCUMENTS\BOMBERMAN-MULTIVERSEV2\BOMBERMANCLIENT\INPUT.CPP|C:\USERS\GARRETH\DOCUMENTS\BOMBERMAN-MULTIVERSEV2\BOMBERMANCLIENT\INPUTDIALOG.CPP|C:\USERS\GARRETH\DOCUMENTS\BOMBERMAN-MULTIVERSEV2\BOMBERMANCLIENT\MENU.CPP|C:\USERS\GARRETH\DOCUMENTS\BOMBERMAN-MULTIVERSEV2\BOMBERMANCLIENT\MESSAGEDIALOG.CPP|C:\USERS\GARRETH\DOCUMENTS\BOMBERMAN-MULTIVERSEV2\BOMBERMANCLIENT\PLAYER.CPP|C:\USERS\GARRETH\DOCUMENTS\BOMBERMAN-MULTIVERSEV2\BOMBERMANCLIENT\POWERUP.CPP|C:\USERS\GARRETH\DOCUMENTS\BOMBERMAN-MULTIVERSEV2\BOMBERMANCLIENT\TEXT.CPP|C:\USERS\GARRETH\DOCUMENTS\BOMBERMAN-MULTIVERSEV2\BOMBERMANCLIENT\TEXTDX.CPP|C:\USERS\GARRETH\DOCUMENTS\BOMBERMAN-MULTIVERSEV2\BOMBERMANCLIENT\TEXTUREMANAGER.CPP|C:\USERS\GARRETH\DOCUMENTS\BOMBERMAN-MULTIVERSEV2\BOMBERMANCLIENT\WINMAIN.CPP
C:\USERS\GARRETH\DOCUMENTS\BOMBERMAN-MULTIVERSEV2\BOMBERMANCLIENT\DEBUG\VC120.PDB
C:\USERS\GARRETH\DOCUMENTS\BOMBERMAN-MULTIVERSEV2\BOMBERMANCLIENT\DEBUG\VC120.IDB
C:\USERS\GARRETH\DOCUMENTS\BOMBERMAN-MULTIVERSEV2\BOMBERMANCLIENT\DEBUG\BOMB.OBJ
C:\USERS\GARRETH\DOCUMENTS\BOMBERMAN-MULTIVERSEV2\BOMBERMANCLIENT\DEBUG\CONSOLE.OBJ
C:\USERS\GARRETH\DOCUMENTS\BOMBERMAN-MULTIVERSEV2\BOMBERMANCLIENT\DEBUG\DASHBOARD.OBJ
C:\USERS\GARRETH\DOCUMENTS\BOMBERMAN-MULTIVERSEV2\BOMBERMANCLIENT\DEBUG\DESTRUCTIBLEBLOCK.OBJ
C:\USERS\GARRETH\DOCUMENTS\BOMBERMAN-MULTIVERSEV2\BOMBERMANCLIENT\DEBUG\ENTITY.OBJ
C:\USERS\GARRETH\DOCUMENTS\BOMBERMAN-MULTIVERSEV2\BOMBERMANCLIENT\DEBUG\EXPLOSION.OBJ
C:\USERS\GARRETH\DOCUMENTS\BOMBERMAN-MULTIVERSEV2\BOMBERMANCLIENT\DEBUG\GAME.OBJ
C:\USERS\GARRETH\DOCUMENTS\BOMBERMAN-MULTIVERSEV2\BOMBERMANCLIENT\DEBUG\GRAPHICS.OBJ
C:\USERS\GARRETH\DOCUMENTS\BOMBERMAN-MULTIVERSEV2\BOMBERMANCLIENT\DEBUG\INPUTDIALOG.OBJ
C:\USERS\GARRETH\DOCUMENTS\BOMBERMAN-MULTIVERSEV2\BOMBERMANCLIENT\DEBUG\MENU.OBJ
C:\USERS\GARRETH\DOCUMENTS\BOMBERMAN-MULTIVERSEV2\BOMBERMANCLIENT\DEBUG\MESSAGEDIALOG.OBJ
C:\USERS\GARRETH\DOCUMENTS\BOMBERMAN-MULTIVERSEV2\BOMBERMANCLIENT\DEBUG\PLAYER.OBJ
C:\USERS\GARRETH\DOCUMENTS\BOMBERMAN-MULTIVERSEV2\BOMBERMANCLIENT\DEBUG\POWERUP.OBJ
C:\USERS\GARRETH\DOCUMENTS\BOMBERMAN-MULTIVERSEV2\BOMBERMANCLIENT\DEBUG\TEXT.OBJ
C:\USERS\GARRETH\DOCUMENTS\BOMBERMAN-MULTIVERSEV2\BOMBERMANCLIENT\DEBUG\TEXTUREMANAGER.OBJ
C:\USERS\GARRETH\DOCUMENTS\BOMBERMAN-MULTIVERSEV2\BOMBERMANCLIENT\DEBUG\INPUT.OBJ
C:\USERS\GARRETH\DOCUMENTS\BOMBERMAN-MULTIVERSEV2\BOMBERMANCLIENT\DEBUG\BOMBERMAN.OBJ
C:\USERS\GARRETH\DOCUMENTS\BOMBERMAN-MULTIVERSEV2\BOMBERMANCLIENT\DEBUG\IMAGE.OBJ
C:\USERS\GARRETH\DOCUMENTS\BOMBERMAN-MULTIVERSEV2\BOMBERMANCLIENT\DEBUG\TEXTDX.OBJ
C:\USERS\GARRETH\DOCUMENTS\BOMBERMAN-MULTIVERSEV2\BOMBERMANCLIENT\DEBUG\WINMAIN.OBJ
C:\USERS\GARRETH\DOCUMENTS\BOMBERMAN-MULTIVERSEV2\BOMBERMANCLIENT\DEBUG\AUDIO.OBJ
^C:\USERS\GARRETH\DOCUMENTS\BOMBERMAN-MULTIVERSEV2\BOMBERMANCLIENT\AUDIO.CPP
C:\USERS\GARRETH\DOCUMENTS\BOMBERMAN-MULTIVERSEV2\BOMBERMANCLIENT\DEBUG\VC120.PDB
^C:\USERS\GARRETH\DOCUMENTS\BOMBERMAN-MULTIVERSEV2\BOMBERMANCLIENT\BOMB.CPP
C:\USERS\GARRETH\DOCUMENTS\BOMBERMAN-MULTIVERSEV2\BOMBERMANCLIENT\DEBUG\VC120.PDB
^C:\USERS\GARRETH\DOCUMENTS\BOMBERMAN-MULTIVERSEV2\BOMBERMANCLIENT\CONSOLE.CPP
C:\USERS\GARRETH\DOCUMENTS\BOMBERMAN-MULTIVERSEV2\BOMBERMANCLIENT\DEBUG\VC120.PDB
^C:\USERS\GARRETH\DOCUMENTS\BOMBERMAN-MULTIVERSEV2\BOMBERMANCLIENT\DASHBOARD.CPP
C:\USERS\GARRETH\DOCUMENTS\BOMBERMAN-MULTIVERSEV2\BOMBERMANCLIENT\DEBUG\VC120.PDB
^C:\USERS\GARRETH\DOCUMENTS\BOMBERMAN-MULTIVERSEV2\BOMBERMANCLIENT\DESTRUCTIBLEBLOCK.CPP
C:\USERS\GARRETH\DOCUMENTS\BOMBERMAN-MULTIVERSEV2\BOMBERMANCLIENT\DEBUG\VC120.PDB
^C:\USERS\GARRETH\DOCUMENTS\BOMBERMAN-MULTIVERSEV2\BOMBERMANCLIENT\ENTITY.CPP
C:\USERS\GARRETH\DOCUMENTS\BOMBERMAN-MULTIVERSEV2\BOMBERMANCLIENT\DEBUG\VC120.PDB
^C:\USERS\GARRETH\DOCUMENTS\BOMBERMAN-MULTIVERSEV2\BOMBERMANCLIENT\EXPLOSION.CPP
C:\USERS\GARRETH\DOCUMENTS\BOMBERMAN-MULTIVERSEV2\BOMBERMANCLIENT\DEBUG\VC120.PDB
^C:\USERS\GARRETH\DOCUMENTS\BOMBERMAN-MULTIVERSEV2\BOMBERMANCLIENT\GAME.CPP
C:\USERS\GARRETH\DOCUMENTS\BOMBERMAN-MULTIVERSEV2\BOMBERMANCLIENT\DEBUG\VC120.PDB
^C:\USERS\GARRETH\DOCUMENTS\BOMBERMAN-MULTIVERSEV2\BOMBERMANCLIENT\GRAPHICS.CPP
C:\USERS\GARRETH\DOCUMENTS\BOMBERMAN-MULTIVERSEV2\BOMBERMANCLIENT\DEBUG\VC120.PDB
^C:\USERS\GARRETH\DOCUMENTS\BOMBERMAN-MULTIVERSEV2\BOMBERMANCLIENT\INPUTDIALOG.CPP
C:\USERS\GARRETH\DOCUMENTS\BOMBERMAN-MULTIVERSEV2\BOMBERMANCLIENT\DEBUG\VC120.PDB
^C:\USERS\GARRETH\DOCUMENTS\BOMBERMAN-MULTIVERSEV2\BOMBERMANCLIENT\MENU.CPP
C:\USERS\GARRETH\DOCUMENTS\BOMBERMAN-MULTIVERSEV2\BOMBERMANCLIENT\DEBUG\VC120.PDB
^C:\USERS\GARRETH\DOCUMENTS\BOMBERMAN-MULTIVERSEV2\BOMBERMANCLIENT\MESSAGEDIALOG.CPP
C:\USERS\GARRETH\DOCUMENTS\BOMBERMAN-MULTIVERSEV2\BOMBERMANCLIENT\DEBUG\VC120.PDB
^C:\USERS\GARRETH\DOCUMENTS\BOMBERMAN-MULTIVERSEV2\BOMBERMANCLIENT\PLAYER.CPP
C:\USERS\GARRETH\DOCUMENTS\BOMBERMAN-MULTIVERSEV2\BOMBERMANCLIENT\DEBUG\VC120.PDB
^C:\USERS\GARRETH\DOCUMENTS\BOMBERMAN-MULTIVERSEV2\BOMBERMANCLIENT\POWERUP.CPP
C:\USERS\GARRETH\DOCUMENTS\BOMBERMAN-MULTIVERSEV2\BOMBERMANCLIENT\DEBUG\VC120.PDB
^C:\USERS\GARRETH\DOCUMENTS\BOMBERMAN-MULTIVERSEV2\BOMBERMANCLIENT\TEXT.CPP
C:\USERS\GARRETH\DOCUMENTS\BOMBERMAN-MULTIVERSEV2\BOMBERMANCLIENT\DEBUG\VC120.PDB
^C:\USERS\GARRETH\DOCUMENTS\BOMBERMAN-MULTIVERSEV2\BOMBERMANCLIENT\TEXTUREMANAGER.CPP
C:\USERS\GARRETH\DOCUMENTS\BOMBERMAN-MULTIVERSEV2\BOMBERMANCLIENT\DEBUG\VC120.PDB
^C:\USERS\GARRETH\DOCUMENTS\BOMBERMAN-MULTIVERSEV2\BOMBERMANCLIENT\INPUT.CPP
C:\USERS\GARRETH\DOCUMENTS\BOMBERMAN-MULTIVERSEV2\BOMBERMANCLIENT\DEBUG\VC120.PDB
^C:\USERS\GARRETH\DOCUMENTS\BOMBERMAN-MULTIVERSEV2\BOMBERMANCLIENT\BOMBERMAN.CPP
C:\USERS\GARRETH\DOCUMENTS\BOMBERMAN-MULTIVERSEV2\BOMBERMANCLIENT\DEBUG\VC120.PDB
^C:\USERS\GARRETH\DOCUMENTS\BOMBERMAN-MULTIVERSEV2\BOMBERMANCLIENT\IMAGE.CPP
C:\USERS\GARRETH\DOCUMENTS\BOMBERMAN-MULTIVERSEV2\BOMBERMANCLIENT\DEBUG\VC120.PDB
^C:\USERS\GARRETH\DOCUMENTS\BOMBERMAN-MULTIVERSEV2\BOMBERMANCLIENT\TEXTDX.CPP
C:\USERS\GARRETH\DOCUMENTS\BOMBERMAN-MULTIVERSEV2\BOMBERMANCLIENT\DEBUG\VC120.PDB
^C:\USERS\GARRETH\DOCUMENTS\BOMBERMAN-MULTIVERSEV2\BOMBERMANCLIENT\WINMAIN.CPP
C:\USERS\GARRETH\DOCUMENTS\BOMBERMAN-MULTIVERSEV2\BOMBERMANCLIENT\DEBUG\VC120.PDB
