^C:\USERS\GARRETH\DOCUMENTS\BOMBERMAN-MULTIVERSEV2\DEBUG\AUDIO.OBJ|C:\USERS\GARRETH\DOCUMENTS\BOMBERMAN-MULTIVERSEV2\DEBUG\BOMB.OBJ|C:\USERS\GARRETH\DOCUMENTS\BOMBERMAN-MULTIVERSEV2\DEBUG\BOMBERMAN.OBJ|C:\USERS\GARRETH\DOCUMENTS\BOMBERMAN-MULTIVERSEV2\DEBUG\CONSOLE.OBJ|C:\USERS\GARRETH\DOCUMENTS\BOMBERMAN-MULTIVERSEV2\DEBUG\DASHBOARD.OBJ|C:\USERS\GARRETH\DOCUMENTS\BOMBERMAN-MULTIVERSEV2\DEBUG\DESTRUCTIBLEBLOCK.OBJ|C:\USERS\GARRETH\DOCUMENTS\BOMBERMAN-MULTIVERSEV2\DEBUG\ENTITY.OBJ|C:\USERS\GARRETH\DOCUMENTS\BOMBERMAN-MULTIVERSEV2\DEBUG\EXPLOSION.OBJ|C:\USERS\GARRETH\DOCUMENTS\BOMBERMAN-MULTIVERSEV2\DEBUG\GAME.OBJ|C:\USERS\GARRETH\DOCUMENTS\BOMBERMAN-MULTIVERSEV2\DEBUG\GRAPHICS.OBJ|C:\USERS\GARRETH\DOCUMENTS\BOMBERMAN-MULTIVERSEV2\DEBUG\IMAGE.OBJ|C:\USERS\GARRETH\DOCUMENTS\BOMBERMAN-MULTIVERSEV2\DEBUG\INPUT.OBJ|C:\USERS\GARRETH\DOCUMENTS\BOMBERMAN-MULTIVERSEV2\DEBUG\INPUTDIALOG.OBJ|C:\USERS\GARRETH\DOCUMENTS\BOMBERMAN-MULTIVERSEV2\DEBUG\MENU.OBJ|C:\USERS\GARRETH\DOCUMENTS\BOMBERMAN-MULTIVERSEV2\DEBUG\MESSAGEDIALOG.OBJ|C:\USERS\GARRETH\DOCUMENTS\BOMBERMAN-MULTIVERSEV2\DEBUG\NET.OBJ|C:\USERS\GARRETH\DOCUMENTS\BOMBERMAN-MULTIVERSEV2\DEBUG\PLAYER.OBJ|C:\USERS\GARRETH\DOCUMENTS\BOMBERMAN-MULTIVERSEV2\DEBUG\POWERUP.OBJ|C:\USERS\GARRETH\DOCUMENTS\BOMBERMAN-MULTIVERSEV2\DEBUG\TEXT.OBJ|C:\USERS\GARRETH\DOCUMENTS\BOMBERMAN-MULTIVERSEV2\DEBUG\TEXTDX.OBJ|C:\USERS\GARRETH\DOCUMENTS\BOMBERMAN-MULTIVERSEV2\DEBUG\TEXTUREMANAGER.OBJ|C:\USERS\GARRETH\DOCUMENTS\BOMBERMAN-MULTIVERSEV2\DEBUG\WINMAIN.OBJ
C:\PROGRAM FILES (X86)\MICROSOFT DIRECTX SDK (JUNE 2010)\LIB\X86\D3D9.LIB
C:\PROGRAM FILES (X86)\MICROSOFT DIRECTX SDK (JUNE 2010)\LIB\X86\D3DX9.LIB
C:\PROGRAM FILES (X86)\WINDOWS KITS\8.1\LIB\WINV6.3\UM\X86\WINMM.LIB
C:\PROGRAM FILES (X86)\MICROSOFT DIRECTX SDK (JUNE 2010)\LIB\X86\XINPUT.LIB
C:\PROGRAM FILES (X86)\WINDOWS KITS\8.1\LIB\WINV6.3\UM\X86\KERNEL32.LIB
C:\PROGRAM FILES (X86)\WINDOWS KITS\8.1\LIB\WINV6.3\UM\X86\USER32.LIB
C:\PROGRAM FILES (X86)\WINDOWS KITS\8.1\LIB\WINV6.3\UM\X86\GDI32.LIB
C:\PROGRAM FILES (X86)\WINDOWS KITS\8.1\LIB\WINV6.3\UM\X86\WINSPOOL.LIB
C:\PROGRAM FILES (X86)\WINDOWS KITS\8.1\LIB\WINV6.3\UM\X86\COMDLG32.LIB
C:\PROGRAM FILES (X86)\WINDOWS KITS\8.1\LIB\WINV6.3\UM\X86\ADVAPI32.LIB
C:\PROGRAM FILES (X86)\WINDOWS KITS\8.1\LIB\WINV6.3\UM\X86\SHELL32.LIB
C:\PROGRAM FILES (X86)\WINDOWS KITS\8.1\LIB\WINV6.3\UM\X86\OLE32.LIB
C:\PROGRAM FILES (X86)\WINDOWS KITS\8.1\LIB\WINV6.3\UM\X86\OLEAUT32.LIB
C:\PROGRAM FILES (X86)\WINDOWS KITS\8.1\LIB\WINV6.3\UM\X86\UUID.LIB
C:\PROGRAM FILES (X86)\WINDOWS KITS\8.1\LIB\WINV6.3\UM\X86\ODBC32.LIB
C:\PROGRAM FILES (X86)\WINDOWS KITS\8.1\LIB\WINV6.3\UM\X86\ODBCCP32.LIB
C:\USERS\GARRETH\DOCUMENTS\BOMBERMAN-MULTIVERSEV2\DEBUG\NET.OBJ
C:\USERS\GARRETH\DOCUMENTS\BOMBERMAN-MULTIVERSEV2\DEBUG\AUDIO.OBJ
C:\USERS\GARRETH\DOCUMENTS\BOMBERMAN-MULTIVERSEV2\DEBUG\BOMB.OBJ
C:\USERS\GARRETH\DOCUMENTS\BOMBERMAN-MULTIVERSEV2\DEBUG\CONSOLE.OBJ
C:\USERS\GARRETH\DOCUMENTS\BOMBERMAN-MULTIVERSEV2\DEBUG\DASHBOARD.OBJ
C:\USERS\GARRETH\DOCUMENTS\BOMBERMAN-MULTIVERSEV2\DEBUG\DESTRUCTIBLEBLOCK.OBJ
C:\USERS\GARRETH\DOCUMENTS\BOMBERMAN-MULTIVERSEV2\DEBUG\ENTITY.OBJ
C:\USERS\GARRETH\DOCUMENTS\BOMBERMAN-MULTIVERSEV2\DEBUG\EXPLOSION.OBJ
C:\USERS\GARRETH\DOCUMENTS\BOMBERMAN-MULTIVERSEV2\DEBUG\GAME.OBJ
C:\USERS\GARRETH\DOCUMENTS\BOMBERMAN-MULTIVERSEV2\DEBUG\GRAPHICS.OBJ
C:\USERS\GARRETH\DOCUMENTS\BOMBERMAN-MULTIVERSEV2\DEBUG\INPUTDIALOG.OBJ
C:\USERS\GARRETH\DOCUMENTS\BOMBERMAN-MULTIVERSEV2\DEBUG\MENU.OBJ
C:\USERS\GARRETH\DOCUMENTS\BOMBERMAN-MULTIVERSEV2\DEBUG\MESSAGEDIALOG.OBJ
C:\USERS\GARRETH\DOCUMENTS\BOMBERMAN-MULTIVERSEV2\DEBUG\PLAYER.OBJ
C:\USERS\GARRETH\DOCUMENTS\BOMBERMAN-MULTIVERSEV2\DEBUG\POWERUP.OBJ
C:\USERS\GARRETH\DOCUMENTS\BOMBERMAN-MULTIVERSEV2\DEBUG\TEXT.OBJ
C:\USERS\GARRETH\DOCUMENTS\BOMBERMAN-MULTIVERSEV2\DEBUG\TEXTUREMANAGER.OBJ
C:\USERS\GARRETH\DOCUMENTS\BOMBERMAN-MULTIVERSEV2\DEBUG\INPUT.OBJ
C:\USERS\GARRETH\DOCUMENTS\BOMBERMAN-MULTIVERSEV2\DEBUG\BOMBERMAN.OBJ
C:\USERS\GARRETH\DOCUMENTS\BOMBERMAN-MULTIVERSEV2\DEBUG\IMAGE.OBJ
C:\USERS\GARRETH\DOCUMENTS\BOMBERMAN-MULTIVERSEV2\DEBUG\TEXTDX.OBJ
C:\USERS\GARRETH\DOCUMENTS\BOMBERMAN-MULTIVERSEV2\DEBUG\WINMAIN.OBJ
C:\WINDOWS\SYSTEM32\TZRES.DLL
C:\WINDOWS\GLOBALIZATION\SORTING\SORTDEFAULT.NLS
C:\PROGRAM FILES (X86)\MICROSOFT VISUAL STUDIO 12.0\VC\LIB\MSVCPRTD.LIB
C:\PROGRAM FILES (X86)\WINDOWS KITS\8.1\LIB\WINV6.3\UM\X86\WS2_32.LIB
C:\PROGRAM FILES (X86)\MICROSOFT VISUAL STUDIO 12.0\VC\LIB\MSVCRTD.LIB
C:\PROGRAM FILES (X86)\MICROSOFT VISUAL STUDIO 12.0\VC\LIB\OLDNAMES.LIB
C:\PROGRAM FILES (X86)\MICROSOFT VISUAL STUDIO 12.0\VC\BIN\LINK.EXE
C:\PROGRAM FILES (X86)\MICROSOFT VISUAL STUDIO 12.0\VC\BIN\1033\LINKUI.DLL
C:\PROGRAM FILES (X86)\WINDOWS KITS\8.1\BIN\X86\RC.EXE
C:\PROGRAM FILES (X86)\MICROSOFT VISUAL STUDIO 12.0\VC\BIN\CVTRES.EXE
^C:\USERS\GARRETH\DOCUMENTS\BOMBERMAN-MULTIVERSEV2\BOMBERMANSERVER\DEBUG\AUDIO.OBJ|C:\USERS\GARRETH\DOCUMENTS\BOMBERMAN-MULTIVERSEV2\BOMBERMANSERVER\DEBUG\BOMB.OBJ|C:\USERS\GARRETH\DOCUMENTS\BOMBERMAN-MULTIVERSEV2\BOMBERMANSERVER\DEBUG\BOMBERMAN.OBJ|C:\USERS\GARRETH\DOCUMENTS\BOMBERMAN-MULTIVERSEV2\BOMBERMANSERVER\DEBUG\CONSOLE.OBJ|C:\USERS\GARRETH\DOCUMENTS\BOMBERMAN-MULTIVERSEV2\BOMBERMANSERVER\DEBUG\DASHBOARD.OBJ|C:\USERS\GARRETH\DOCUMENTS\BOMBERMAN-MULTIVERSEV2\BOMBERMANSERVER\DEBUG\DESTRUCTIBLEBLOCK.OBJ|C:\USERS\GARRETH\DOCUMENTS\BOMBERMAN-MULTIVERSEV2\BOMBERMANSERVER\DEBUG\ENTITY.OBJ|C:\USERS\GARRETH\DOCUMENTS\BOMBERMAN-MULTIVERSEV2\BOMBERMANSERVER\DEBUG\EXPLOSION.OBJ|C:\USERS\GARRETH\DOCUMENTS\BOMBERMAN-MULTIVERSEV2\BOMBERMANSERVER\DEBUG\GAME.OBJ|C:\USERS\GARRETH\DOCUMENTS\BOMBERMAN-MULTIVERSEV2\BOMBERMANSERVER\DEBUG\GRAPHICS.OBJ|C:\USERS\GARRETH\DOCUMENTS\BOMBERMAN-MULTIVERSEV2\BOMBERMANSERVER\DEBUG\IMAGE.OBJ|C:\USERS\GARRETH\DOCUMENTS\BOMBERMAN-MULTIVERSEV2\BOMBERMANSERVER\DEBUG\INPUT.OBJ|C:\USERS\GARRETH\DOCUMENTS\BOMBERMAN-MULTIVERSEV2\BOMBERMANSERVER\DEBUG\INPUTDIALOG.OBJ|C:\USERS\GARRETH\DOCUMENTS\BOMBERMAN-MULTIVERSEV2\BOMBERMANSERVER\DEBUG\MENU.OBJ|C:\USERS\GARRETH\DOCUMENTS\BOMBERMAN-MULTIVERSEV2\BOMBERMANSERVER\DEBUG\MESSAGEDIALOG.OBJ|C:\USERS\GARRETH\DOCUMENTS\BOMBERMAN-MULTIVERSEV2\BOMBERMANSERVER\DEBUG\NET.OBJ|C:\USERS\GARRETH\DOCUMENTS\BOMBERMAN-MULTIVERSEV2\BOMBERMANSERVER\DEBUG\PLAYER.OBJ|C:\USERS\GARRETH\DOCUMENTS\BOMBERMAN-MULTIVERSEV2\BOMBERMANSERVER\DEBUG\POWERUP.OBJ|C:\USERS\GARRETH\DOCUMENTS\BOMBERMAN-MULTIVERSEV2\BOMBERMANSERVER\DEBUG\TEXT.OBJ|C:\USERS\GARRETH\DOCUMENTS\BOMBERMAN-MULTIVERSEV2\BOMBERMANSERVER\DEBUG\TEXTDX.OBJ|C:\USERS\GARRETH\DOCUMENTS\BOMBERMAN-MULTIVERSEV2\BOMBERMANSERVER\DEBUG\TEXTUREMANAGER.OBJ|C:\USERS\GARRETH\DOCUMENTS\BOMBERMAN-MULTIVERSEV2\BOMBERMANSERVER\DEBUG\WINMAIN.OBJ
C:\PROGRAM FILES (X86)\MICROSOFT DIRECTX SDK (JUNE 2010)\LIB\X86\D3D9.LIB
C:\PROGRAM FILES (X86)\MICROSOFT DIRECTX SDK (JUNE 2010)\LIB\X86\D3DX9.LIB
C:\PROGRAM FILES (X86)\WINDOWS KITS\8.1\LIB\WINV6.3\UM\X86\WINMM.LIB
C:\PROGRAM FILES (X86)\MICROSOFT DIRECTX SDK (JUNE 2010)\LIB\X86\XINPUT.LIB
C:\PROGRAM FILES (X86)\WINDOWS KITS\8.1\LIB\WINV6.3\UM\X86\KERNEL32.LIB
C:\PROGRAM FILES (X86)\WINDOWS KITS\8.1\LIB\WINV6.3\UM\X86\USER32.LIB
C:\PROGRAM FILES (X86)\WINDOWS KITS\8.1\LIB\WINV6.3\UM\X86\GDI32.LIB
C:\PROGRAM FILES (X86)\WINDOWS KITS\8.1\LIB\WINV6.3\UM\X86\WINSPOOL.LIB
C:\PROGRAM FILES (X86)\WINDOWS KITS\8.1\LIB\WINV6.3\UM\X86\COMDLG32.LIB
C:\PROGRAM FILES (X86)\WINDOWS KITS\8.1\LIB\WINV6.3\UM\X86\ADVAPI32.LIB
C:\PROGRAM FILES (X86)\WINDOWS KITS\8.1\LIB\WINV6.3\UM\X86\SHELL32.LIB
C:\PROGRAM FILES (X86)\WINDOWS KITS\8.1\LIB\WINV6.3\UM\X86\OLE32.LIB
C:\PROGRAM FILES (X86)\WINDOWS KITS\8.1\LIB\WINV6.3\UM\X86\OLEAUT32.LIB
C:\PROGRAM FILES (X86)\WINDOWS KITS\8.1\LIB\WINV6.3\UM\X86\UUID.LIB
C:\PROGRAM FILES (X86)\WINDOWS KITS\8.1\LIB\WINV6.3\UM\X86\ODBC32.LIB
C:\PROGRAM FILES (X86)\WINDOWS KITS\8.1\LIB\WINV6.3\UM\X86\ODBCCP32.LIB
C:\USERS\GARRETH\DOCUMENTS\BOMBERMAN-MULTIVERSEV2\BOMBERMANSERVER\DEBUG\NET.OBJ
C:\USERS\GARRETH\DOCUMENTS\BOMBERMAN-MULTIVERSEV2\BOMBERMANSERVER\DEBUG\AUDIO.OBJ
C:\USERS\GARRETH\DOCUMENTS\BOMBERMAN-MULTIVERSEV2\BOMBERMANSERVER\DEBUG\BOMB.OBJ
C:\USERS\GARRETH\DOCUMENTS\BOMBERMAN-MULTIVERSEV2\BOMBERMANSERVER\DEBUG\CONSOLE.OBJ
C:\USERS\GARRETH\DOCUMENTS\BOMBERMAN-MULTIVERSEV2\BOMBERMANSERVER\DEBUG\DASHBOARD.OBJ
C:\USERS\GARRETH\DOCUMENTS\BOMBERMAN-MULTIVERSEV2\BOMBERMANSERVER\DEBUG\DESTRUCTIBLEBLOCK.OBJ
C:\USERS\GARRETH\DOCUMENTS\BOMBERMAN-MULTIVERSEV2\BOMBERMANSERVER\DEBUG\ENTITY.OBJ
C:\USERS\GARRETH\DOCUMENTS\BOMBERMAN-MULTIVERSEV2\BOMBERMANSERVER\DEBUG\EXPLOSION.OBJ
C:\USERS\GARRETH\DOCUMENTS\BOMBERMAN-MULTIVERSEV2\BOMBERMANSERVER\DEBUG\GAME.OBJ
C:\USERS\GARRETH\DOCUMENTS\BOMBERMAN-MULTIVERSEV2\BOMBERMANSERVER\DEBUG\GRAPHICS.OBJ
C:\USERS\GARRETH\DOCUMENTS\BOMBERMAN-MULTIVERSEV2\BOMBERMANSERVER\DEBUG\INPUTDIALOG.OBJ
C:\USERS\GARRETH\DOCUMENTS\BOMBERMAN-MULTIVERSEV2\BOMBERMANSERVER\DEBUG\MENU.OBJ
C:\USERS\GARRETH\DOCUMENTS\BOMBERMAN-MULTIVERSEV2\BOMBERMANSERVER\DEBUG\MESSAGEDIALOG.OBJ
C:\USERS\GARRETH\DOCUMENTS\BOMBERMAN-MULTIVERSEV2\BOMBERMANSERVER\DEBUG\PLAYER.OBJ
C:\USERS\GARRETH\DOCUMENTS\BOMBERMAN-MULTIVERSEV2\BOMBERMANSERVER\DEBUG\POWERUP.OBJ
C:\USERS\GARRETH\DOCUMENTS\BOMBERMAN-MULTIVERSEV2\BOMBERMANSERVER\DEBUG\TEXT.OBJ
C:\USERS\GARRETH\DOCUMENTS\BOMBERMAN-MULTIVERSEV2\BOMBERMANSERVER\DEBUG\TEXTUREMANAGER.OBJ
C:\USERS\GARRETH\DOCUMENTS\BOMBERMAN-MULTIVERSEV2\BOMBERMANSERVER\DEBUG\INPUT.OBJ
C:\USERS\GARRETH\DOCUMENTS\BOMBERMAN-MULTIVERSEV2\BOMBERMANSERVER\DEBUG\BOMBERMAN.OBJ
C:\USERS\GARRETH\DOCUMENTS\BOMBERMAN-MULTIVERSEV2\BOMBERMANSERVER\DEBUG\IMAGE.OBJ
C:\USERS\GARRETH\DOCUMENTS\BOMBERMAN-MULTIVERSEV2\BOMBERMANSERVER\DEBUG\TEXTDX.OBJ
C:\USERS\GARRETH\DOCUMENTS\BOMBERMAN-MULTIVERSEV2\BOMBERMANSERVER\DEBUG\WINMAIN.OBJ
C:\WINDOWS\SYSTEM32\TZRES.DLL
C:\WINDOWS\GLOBALIZATION\SORTING\SORTDEFAULT.NLS
C:\PROGRAM FILES (X86)\MICROSOFT VISUAL STUDIO 12.0\VC\BIN\1033\LINKUI.DLL
C:\PROGRAM FILES (X86)\MICROSOFT VISUAL STUDIO 12.0\VC\LIB\MSVCPRTD.LIB
C:\PROGRAM FILES (X86)\WINDOWS KITS\8.1\LIB\WINV6.3\UM\X86\WS2_32.LIB
C:\PROGRAM FILES (X86)\MICROSOFT VISUAL STUDIO 12.0\VC\LIB\MSVCRTD.LIB
C:\PROGRAM FILES (X86)\MICROSOFT VISUAL STUDIO 12.0\VC\LIB\OLDNAMES.LIB
C:\PROGRAM FILES (X86)\WINDOWS KITS\8.1\BIN\X86\RC.EXE
C:\PROGRAM FILES (X86)\MICROSOFT VISUAL STUDIO 12.0\VC\BIN\CVTRES.EXE
^C:\USERS\GARRETH\DOCUMENTS\BOMBERMAN-MULTIVERSEV2\BOMBERMANCLIENT\DEBUG\AUDIO.OBJ|C:\USERS\GARRETH\DOCUMENTS\BOMBERMAN-MULTIVERSEV2\BOMBERMANCLIENT\DEBUG\BOMB.OBJ|C:\USERS\GARRETH\DOCUMENTS\BOMBERMAN-MULTIVERSEV2\BOMBERMANCLIENT\DEBUG\BOMBERMAN.OBJ|C:\USERS\GARRETH\DOCUMENTS\BOMBERMAN-MULTIVERSEV2\BOMBERMANCLIENT\DEBUG\CONSOLE.OBJ|C:\USERS\GARRETH\DOCUMENTS\BOMBERMAN-MULTIVERSEV2\BOMBERMANCLIENT\DEBUG\DASHBOARD.OBJ|C:\USERS\GARRETH\DOCUMENTS\BOMBERMAN-MULTIVERSEV2\BOMBERMANCLIENT\DEBUG\DESTRUCTIBLEBLOCK.OBJ|C:\USERS\GARRETH\DOCUMENTS\BOMBERMAN-MULTIVERSEV2\BOMBERMANCLIENT\DEBUG\ENTITY.OBJ|C:\USERS\GARRETH\DOCUMENTS\BOMBERMAN-MULTIVERSEV2\BOMBERMANCLIENT\DEBUG\EXPLOSION.OBJ|C:\USERS\GARRETH\DOCUMENTS\BOMBERMAN-MULTIVERSEV2\BOMBERMANCLIENT\DEBUG\GAME.OBJ|C:\USERS\GARRETH\DOCUMENTS\BOMBERMAN-MULTIVERSEV2\BOMBERMANCLIENT\DEBUG\GRAPHICS.OBJ|C:\USERS\GARRETH\DOCUMENTS\BOMBERMAN-MULTIVERSEV2\BOMBERMANCLIENT\DEBUG\IMAGE.OBJ|C:\USERS\GARRETH\DOCUMENTS\BOMBERMAN-MULTIVERSEV2\BOMBERMANCLIENT\DEBUG\INPUT.OBJ|C:\USERS\GARRETH\DOCUMENTS\BOMBERMAN-MULTIVERSEV2\BOMBERMANCLIENT\DEBUG\INPUTDIALOG.OBJ|C:\USERS\GARRETH\DOCUMENTS\BOMBERMAN-MULTIVERSEV2\BOMBERMANCLIENT\DEBUG\MENU.OBJ|C:\USERS\GARRETH\DOCUMENTS\BOMBERMAN-MULTIVERSEV2\BOMBERMANCLIENT\DEBUG\MESSAGEDIALOG.OBJ|C:\USERS\GARRETH\DOCUMENTS\BOMBERMAN-MULTIVERSEV2\BOMBERMANCLIENT\DEBUG\NET.OBJ|C:\USERS\GARRETH\DOCUMENTS\BOMBERMAN-MULTIVERSEV2\BOMBERMANCLIENT\DEBUG\PLAYER.OBJ|C:\USERS\GARRETH\DOCUMENTS\BOMBERMAN-MULTIVERSEV2\BOMBERMANCLIENT\DEBUG\POWERUP.OBJ|C:\USERS\GARRETH\DOCUMENTS\BOMBERMAN-MULTIVERSEV2\BOMBERMANCLIENT\DEBUG\TEXT.OBJ|C:\USERS\GARRETH\DOCUMENTS\BOMBERMAN-MULTIVERSEV2\BOMBERMANCLIENT\DEBUG\TEXTDX.OBJ|C:\USERS\GARRETH\DOCUMENTS\BOMBERMAN-MULTIVERSEV2\BOMBERMANCLIENT\DEBUG\TEXTUREMANAGER.OBJ|C:\USERS\GARRETH\DOCUMENTS\BOMBERMAN-MULTIVERSEV2\BOMBERMANCLIENT\DEBUG\WINMAIN.OBJ
C:\PROGRAM FILES (X86)\MICROSOFT DIRECTX SDK (JUNE 2010)\LIB\X86\D3D9.LIB
C:\PROGRAM FILES (X86)\MICROSOFT DIRECTX SDK (JUNE 2010)\LIB\X86\D3DX9.LIB
C:\PROGRAM FILES (X86)\WINDOWS KITS\8.1\LIB\WINV6.3\UM\X86\WINMM.LIB
C:\PROGRAM FILES (X86)\MICROSOFT DIRECTX SDK (JUNE 2010)\LIB\X86\XINPUT.LIB
C:\PROGRAM FILES (X86)\WINDOWS KITS\8.1\LIB\WINV6.3\UM\X86\KERNEL32.LIB
C:\PROGRAM FILES (X86)\WINDOWS KITS\8.1\LIB\WINV6.3\UM\X86\USER32.LIB
C:\PROGRAM FILES (X86)\WINDOWS KITS\8.1\LIB\WINV6.3\UM\X86\GDI32.LIB
C:\PROGRAM FILES (X86)\WINDOWS KITS\8.1\LIB\WINV6.3\UM\X86\WINSPOOL.LIB
C:\PROGRAM FILES (X86)\WINDOWS KITS\8.1\LIB\WINV6.3\UM\X86\COMDLG32.LIB
C:\PROGRAM FILES (X86)\WINDOWS KITS\8.1\LIB\WINV6.3\UM\X86\ADVAPI32.LIB
C:\PROGRAM FILES (X86)\WINDOWS KITS\8.1\LIB\WINV6.3\UM\X86\SHELL32.LIB
C:\PROGRAM FILES (X86)\WINDOWS KITS\8.1\LIB\WINV6.3\UM\X86\OLE32.LIB
C:\PROGRAM FILES (X86)\WINDOWS KITS\8.1\LIB\WINV6.3\UM\X86\OLEAUT32.LIB
C:\PROGRAM FILES (X86)\WINDOWS KITS\8.1\LIB\WINV6.3\UM\X86\UUID.LIB
C:\PROGRAM FILES (X86)\WINDOWS KITS\8.1\LIB\WINV6.3\UM\X86\ODBC32.LIB
C:\PROGRAM FILES (X86)\WINDOWS KITS\8.1\LIB\WINV6.3\UM\X86\ODBCCP32.LIB
C:\USERS\GARRETH\DOCUMENTS\BOMBERMAN-MULTIVERSEV2\BOMBERMANCLIENT\DEBUG\NET.OBJ
C:\USERS\GARRETH\DOCUMENTS\BOMBERMAN-MULTIVERSEV2\BOMBERMANCLIENT\DEBUG\AUDIO.OBJ
C:\USERS\GARRETH\DOCUMENTS\BOMBERMAN-MULTIVERSEV2\BOMBERMANCLIENT\DEBUG\BOMB.OBJ
C:\USERS\GARRETH\DOCUMENTS\BOMBERMAN-MULTIVERSEV2\BOMBERMANCLIENT\DEBUG\CONSOLE.OBJ
C:\USERS\GARRETH\DOCUMENTS\BOMBERMAN-MULTIVERSEV2\BOMBERMANCLIENT\DEBUG\DASHBOARD.OBJ
C:\USERS\GARRETH\DOCUMENTS\BOMBERMAN-MULTIVERSEV2\BOMBERMANCLIENT\DEBUG\DESTRUCTIBLEBLOCK.OBJ
C:\USERS\GARRETH\DOCUMENTS\BOMBERMAN-MULTIVERSEV2\BOMBERMANCLIENT\DEBUG\ENTITY.OBJ
C:\USERS\GARRETH\DOCUMENTS\BOMBERMAN-MULTIVERSEV2\BOMBERMANCLIENT\DEBUG\EXPLOSION.OBJ
C:\USERS\GARRETH\DOCUMENTS\BOMBERMAN-MULTIVERSEV2\BOMBERMANCLIENT\DEBUG\GAME.OBJ
C:\USERS\GARRETH\DOCUMENTS\BOMBERMAN-MULTIVERSEV2\BOMBERMANCLIENT\DEBUG\GRAPHICS.OBJ
C:\USERS\GARRETH\DOCUMENTS\BOMBERMAN-MULTIVERSEV2\BOMBERMANCLIENT\DEBUG\INPUTDIALOG.OBJ
C:\USERS\GARRETH\DOCUMENTS\BOMBERMAN-MULTIVERSEV2\BOMBERMANCLIENT\DEBUG\MENU.OBJ
C:\USERS\GARRETH\DOCUMENTS\BOMBERMAN-MULTIVERSEV2\BOMBERMANCLIENT\DEBUG\MESSAGEDIALOG.OBJ
C:\USERS\GARRETH\DOCUMENTS\BOMBERMAN-MULTIVERSEV2\BOMBERMANCLIENT\DEBUG\PLAYER.OBJ
C:\USERS\GARRETH\DOCUMENTS\BOMBERMAN-MULTIVERSEV2\BOMBERMANCLIENT\DEBUG\POWERUP.OBJ
C:\USERS\GARRETH\DOCUMENTS\BOMBERMAN-MULTIVERSEV2\BOMBERMANCLIENT\DEBUG\TEXT.OBJ
C:\USERS\GARRETH\DOCUMENTS\BOMBERMAN-MULTIVERSEV2\BOMBERMANCLIENT\DEBUG\TEXTUREMANAGER.OBJ
C:\USERS\GARRETH\DOCUMENTS\BOMBERMAN-MULTIVERSEV2\BOMBERMANCLIENT\DEBUG\INPUT.OBJ
C:\USERS\GARRETH\DOCUMENTS\BOMBERMAN-MULTIVERSEV2\BOMBERMANCLIENT\DEBUG\BOMBERMAN.OBJ
C:\USERS\GARRETH\DOCUMENTS\BOMBERMAN-MULTIVERSEV2\BOMBERMANCLIENT\DEBUG\IMAGE.OBJ
C:\USERS\GARRETH\DOCUMENTS\BOMBERMAN-MULTIVERSEV2\BOMBERMANCLIENT\DEBUG\TEXTDX.OBJ
C:\USERS\GARRETH\DOCUMENTS\BOMBERMAN-MULTIVERSEV2\BOMBERMANCLIENT\DEBUG\WINMAIN.OBJ
C:\WINDOWS\SYSTEM32\TZRES.DLL
C:\WINDOWS\GLOBALIZATION\SORTING\SORTDEFAULT.NLS
C:\PROGRAM FILES (X86)\MICROSOFT VISUAL STUDIO 12.0\VC\BIN\1033\LINKUI.DLL
C:\PROGRAM FILES (X86)\MICROSOFT VISUAL STUDIO 12.0\VC\LIB\MSVCPRTD.LIB
C:\PROGRAM FILES (X86)\WINDOWS KITS\8.1\LIB\WINV6.3\UM\X86\WS2_32.LIB
C:\PROGRAM FILES (X86)\MICROSOFT VISUAL STUDIO 12.0\VC\LIB\MSVCRTD.LIB
C:\PROGRAM FILES (X86)\MICROSOFT VISUAL STUDIO 12.0\VC\LIB\OLDNAMES.LIB
C:\PROGRAM FILES (X86)\WINDOWS KITS\8.1\BIN\X86\RC.EXE
C:\PROGRAM FILES (X86)\MICROSOFT VISUAL STUDIO 12.0\VC\BIN\CVTRES.EXE
