^C:\USERS\GARRETH\DOCUMENTS\BOMBERMAN-MULTIVERSEV2\DEBUG\AUDIO.OBJ|C:\USERS\GARRETH\DOCUMENTS\BOMBERMAN-MULTIVERSEV2\DEBUG\BOMB.OBJ|C:\USERS\GARRETH\DOCUMENTS\BOMBERMAN-MULTIVERSEV2\DEBUG\BOMBERMAN.OBJ|C:\USERS\GARRETH\DOCUMENTS\BOMBERMAN-MULTIVERSEV2\DEBUG\CONSOLE.OBJ|C:\USERS\GARRETH\DOCUMENTS\BOMBERMAN-MULTIVERSEV2\DEBUG\DASHBOARD.OBJ|C:\USERS\GARRETH\DOCUMENTS\BOMBERMAN-MULTIVERSEV2\DEBUG\DESTRUCTIBLEBLOCK.OBJ|C:\USERS\GARRETH\DOCUMENTS\BOMBERMAN-MULTIVERSEV2\DEBUG\ENTITY.OBJ|C:\USERS\GARRETH\DOCUMENTS\BOMBERMAN-MULTIVERSEV2\DEBUG\EXPLOSION.OBJ|C:\USERS\GARRETH\DOCUMENTS\BOMBERMAN-MULTIVERSEV2\DEBUG\GAME.OBJ|C:\USERS\GARRETH\DOCUMENTS\BOMBERMAN-MULTIVERSEV2\DEBUG\GRAPHICS.OBJ|C:\USERS\GARRETH\DOCUMENTS\BOMBERMAN-MULTIVERSEV2\DEBUG\IMAGE.OBJ|C:\USERS\GARRETH\DOCUMENTS\BOMBERMAN-MULTIVERSEV2\DEBUG\INPUT.OBJ|C:\USERS\GARRETH\DOCUMENTS\BOMBERMAN-MULTIVERSEV2\DEBUG\INPUTDIALOG.OBJ|C:\USERS\GARRETH\DOCUMENTS\BOMBERMAN-MULTIVERSEV2\DEBUG\MENU.OBJ|C:\USERS\GARRETH\DOCUMENTS\BOMBERMAN-MULTIVERSEV2\DEBUG\MESSAGEDIALOG.OBJ|C:\USERS\GARRETH\DOCUMENTS\BOMBERMAN-MULTIVERSEV2\DEBUG\NET.OBJ|C:\USERS\GARRETH\DOCUMENTS\BOMBERMAN-MULTIVERSEV2\DEBUG\PLAYER.OBJ|C:\USERS\GARRETH\DOCUMENTS\BOMBERMAN-MULTIVERSEV2\DEBUG\POWERUP.OBJ|C:\USERS\GARRETH\DOCUMENTS\BOMBERMAN-MULTIVERSEV2\DEBUG\TEXT.OBJ|C:\USERS\GARRETH\DOCUMENTS\BOMBERMAN-MULTIVERSEV2\DEBUG\TEXTDX.OBJ|C:\USERS\GARRETH\DOCUMENTS\BOMBERMAN-MULTIVERSEV2\DEBUG\TEXTUREMANAGER.OBJ|C:\USERS\GARRETH\DOCUMENTS\BOMBERMAN-MULTIVERSEV2\DEBUG\WINMAIN.OBJ
/OUT:"C:\USERS\GARRETH\DOCUMENTS\BOMBERMAN-MULTIVERSEV2\DEBUG\BOMBERMANMULTIVERSE.EXE" /NOLOGO /LIBPATH:"C:\Program Files (x86)\Microsoft DirectX SDK (June 2010)\\Lib\x86" d3d9.lib d3dx9.lib winmm.lib xinput.lib kernel32.lib user32.lib gdi32.lib winspool.lib comdlg32.lib advapi32.lib shell32.lib ole32.lib oleaut32.lib uuid.lib odbc32.lib odbccp32.lib /MANIFEST /MANIFESTUAC:"level='asInvoker' uiAccess='false'" /manifest:embed /DEBUG /PDB:"C:\USERS\GARRETH\DOCUMENTS\BOMBERMAN-MULTIVERSEV2\DEBUG\BOMBERMANMULTIVERSE.PDB" /TLBID:1 /DYNAMICBASE /NXCOMPAT /IMPLIB:"C:\USERS\GARRETH\DOCUMENTS\BOMBERMAN-MULTIVERSEV2\DEBUG\BOMBERMANMULTIVERSE.LIB" /MACHINE:X86 /SAFESEH DEBUG\NET.OBJDEBUG\AUDIO.OBJDEBUG\BOMB.OBJDEBUG\CONSOLE.OBJDEBUG\DASHBOARD.OBJDEBUG\DESTRUCTIBLEBLOCK.OBJDEBUG\ENTITY.OBJDEBUG\EXPLOSION.OBJDEBUG\GAME.OBJDEBUG\GRAPHICS.OBJDEBUG\INPUTDIALOG.OBJDEBUG\MENU.OBJDEBUG\MESSAGEDIALOG.OBJDEBUG\PLAYER.OBJDEBUG\POWERUP.OBJDEBUG\TEXT.OBJDEBUG\TEXTUREMANAGER.OBJDEBUG\INPUT.OBJDEBUG\BOMBERMAN.OBJDEBUG\IMAGE.OBJDEBUG\TEXTDX.OBJDEBUG\WINMAIN.OBJ
^C:\USERS\GARRETH\DOCUMENTS\BOMBERMAN-MULTIVERSEV2\BOMBERMANSERVER\DEBUG\AUDIO.OBJ|C:\USERS\GARRETH\DOCUMENTS\BOMBERMAN-MULTIVERSEV2\BOMBERMANSERVER\DEBUG\BOMB.OBJ|C:\USERS\GARRETH\DOCUMENTS\BOMBERMAN-MULTIVERSEV2\BOMBERMANSERVER\DEBUG\BOMBERMAN.OBJ|C:\USERS\GARRETH\DOCUMENTS\BOMBERMAN-MULTIVERSEV2\BOMBERMANSERVER\DEBUG\CONSOLE.OBJ|C:\USERS\GARRETH\DOCUMENTS\BOMBERMAN-MULTIVERSEV2\BOMBERMANSERVER\DEBUG\DASHBOARD.OBJ|C:\USERS\GARRETH\DOCUMENTS\BOMBERMAN-MULTIVERSEV2\BOMBERMANSERVER\DEBUG\DESTRUCTIBLEBLOCK.OBJ|C:\USERS\GARRETH\DOCUMENTS\BOMBERMAN-MULTIVERSEV2\BOMBERMANSERVER\DEBUG\ENTITY.OBJ|C:\USERS\GARRETH\DOCUMENTS\BOMBERMAN-MULTIVERSEV2\BOMBERMANSERVER\DEBUG\EXPLOSION.OBJ|C:\USERS\GARRETH\DOCUMENTS\BOMBERMAN-MULTIVERSEV2\BOMBERMANSERVER\DEBUG\GAME.OBJ|C:\USERS\GARRETH\DOCUMENTS\BOMBERMAN-MULTIVERSEV2\BOMBERMANSERVER\DEBUG\GRAPHICS.OBJ|C:\USERS\GARRETH\DOCUMENTS\BOMBERMAN-MULTIVERSEV2\BOMBERMANSERVER\DEBUG\IMAGE.OBJ|C:\USERS\GARRETH\DOCUMENTS\BOMBERMAN-MULTIVERSEV2\BOMBERMANSERVER\DEBUG\INPUT.OBJ|C:\USERS\GARRETH\DOCUMENTS\BOMBERMAN-MULTIVERSEV2\BOMBERMANSERVER\DEBUG\INPUTDIALOG.OBJ|C:\USERS\GARRETH\DOCUMENTS\BOMBERMAN-MULTIVERSEV2\BOMBERMANSERVER\DEBUG\MENU.OBJ|C:\USERS\GARRETH\DOCUMENTS\BOMBERMAN-MULTIVERSEV2\BOMBERMANSERVER\DEBUG\MESSAGEDIALOG.OBJ|C:\USERS\GARRETH\DOCUMENTS\BOMBERMAN-MULTIVERSEV2\BOMBERMANSERVER\DEBUG\NET.OBJ|C:\USERS\GARRETH\DOCUMENTS\BOMBERMAN-MULTIVERSEV2\BOMBERMANSERVER\DEBUG\PLAYER.OBJ|C:\USERS\GARRETH\DOCUMENTS\BOMBERMAN-MULTIVERSEV2\BOMBERMANSERVER\DEBUG\POWERUP.OBJ|C:\USERS\GARRETH\DOCUMENTS\BOMBERMAN-MULTIVERSEV2\BOMBERMANSERVER\DEBUG\TEXT.OBJ|C:\USERS\GARRETH\DOCUMENTS\BOMBERMAN-MULTIVERSEV2\BOMBERMANSERVER\DEBUG\TEXTDX.OBJ|C:\USERS\GARRETH\DOCUMENTS\BOMBERMAN-MULTIVERSEV2\BOMBERMANSERVER\DEBUG\TEXTUREMANAGER.OBJ|C:\USERS\GARRETH\DOCUMENTS\BOMBERMAN-MULTIVERSEV2\BOMBERMANSERVER\DEBUG\WINMAIN.OBJ
/OUT:"C:\USERS\GARRETH\DOCUMENTS\BOMBERMAN-MULTIVERSEV2\BOMBERMANSERVER\DEBUG\BOMBERMANMULTIVERSE.EXE" /NOLOGO /LIBPATH:"C:\Program Files (x86)\Microsoft DirectX SDK (June 2010)\\Lib\x86" d3d9.lib d3dx9.lib winmm.lib xinput.lib kernel32.lib user32.lib gdi32.lib winspool.lib comdlg32.lib advapi32.lib shell32.lib ole32.lib oleaut32.lib uuid.lib odbc32.lib odbccp32.lib /MANIFEST /MANIFESTUAC:"level='asInvoker' uiAccess='false'" /manifest:embed /DEBUG /PDB:"C:\USERS\GARRETH\DOCUMENTS\BOMBERMAN-MULTIVERSEV2\BOMBERMANSERVER\DEBUG\BOMBERMANMULTIVERSE.PDB" /TLBID:1 /DYNAMICBASE /NXCOMPAT /IMPLIB:"C:\USERS\GARRETH\DOCUMENTS\BOMBERMAN-MULTIVERSEV2\BOMBERMANSERVER\DEBUG\BOMBERMANMULTIVERSE.LIB" /MACHINE:X86 /SAFESEH DEBUG\NET.OBJDEBUG\AUDIO.OBJDEBUG\BOMB.OBJDEBUG\CONSOLE.OBJDEBUG\DASHBOARD.OBJDEBUG\DESTRUCTIBLEBLOCK.OBJDEBUG\ENTITY.OBJDEBUG\EXPLOSION.OBJDEBUG\GAME.OBJDEBUG\GRAPHICS.OBJDEBUG\INPUTDIALOG.OBJDEBUG\MENU.OBJDEBUG\MESSAGEDIALOG.OBJDEBUG\PLAYER.OBJDEBUG\POWERUP.OBJDEBUG\TEXT.OBJDEBUG\TEXTUREMANAGER.OBJDEBUG\INPUT.OBJDEBUG\BOMBERMAN.OBJDEBUG\IMAGE.OBJDEBUG\TEXTDX.OBJDEBUG\WINMAIN.OBJ
^C:\USERS\GARRETH\DOCUMENTS\BOMBERMAN-MULTIVERSEV2\BOMBERMANCLIENT\DEBUG\AUDIO.OBJ|C:\USERS\GARRETH\DOCUMENTS\BOMBERMAN-MULTIVERSEV2\BOMBERMANCLIENT\DEBUG\BOMB.OBJ|C:\USERS\GARRETH\DOCUMENTS\BOMBERMAN-MULTIVERSEV2\BOMBERMANCLIENT\DEBUG\BOMBERMAN.OBJ|C:\USERS\GARRETH\DOCUMENTS\BOMBERMAN-MULTIVERSEV2\BOMBERMANCLIENT\DEBUG\CONSOLE.OBJ|C:\USERS\GARRETH\DOCUMENTS\BOMBERMAN-MULTIVERSEV2\BOMBERMANCLIENT\DEBUG\DASHBOARD.OBJ|C:\USERS\GARRETH\DOCUMENTS\BOMBERMAN-MULTIVERSEV2\BOMBERMANCLIENT\DEBUG\DESTRUCTIBLEBLOCK.OBJ|C:\USERS\GARRETH\DOCUMENTS\BOMBERMAN-MULTIVERSEV2\BOMBERMANCLIENT\DEBUG\ENTITY.OBJ|C:\USERS\GARRETH\DOCUMENTS\BOMBERMAN-MULTIVERSEV2\BOMBERMANCLIENT\DEBUG\EXPLOSION.OBJ|C:\USERS\GARRETH\DOCUMENTS\BOMBERMAN-MULTIVERSEV2\BOMBERMANCLIENT\DEBUG\GAME.OBJ|C:\USERS\GARRETH\DOCUMENTS\BOMBERMAN-MULTIVERSEV2\BOMBERMANCLIENT\DEBUG\GRAPHICS.OBJ|C:\USERS\GARRETH\DOCUMENTS\BOMBERMAN-MULTIVERSEV2\BOMBERMANCLIENT\DEBUG\IMAGE.OBJ|C:\USERS\GARRETH\DOCUMENTS\BOMBERMAN-MULTIVERSEV2\BOMBERMANCLIENT\DEBUG\INPUT.OBJ|C:\USERS\GARRETH\DOCUMENTS\BOMBERMAN-MULTIVERSEV2\BOMBERMANCLIENT\DEBUG\INPUTDIALOG.OBJ|C:\USERS\GARRETH\DOCUMENTS\BOMBERMAN-MULTIVERSEV2\BOMBERMANCLIENT\DEBUG\MENU.OBJ|C:\USERS\GARRETH\DOCUMENTS\BOMBERMAN-MULTIVERSEV2\BOMBERMANCLIENT\DEBUG\MESSAGEDIALOG.OBJ|C:\USERS\GARRETH\DOCUMENTS\BOMBERMAN-MULTIVERSEV2\BOMBERMANCLIENT\DEBUG\NET.OBJ|C:\USERS\GARRETH\DOCUMENTS\BOMBERMAN-MULTIVERSEV2\BOMBERMANCLIENT\DEBUG\PLAYER.OBJ|C:\USERS\GARRETH\DOCUMENTS\BOMBERMAN-MULTIVERSEV2\BOMBERMANCLIENT\DEBUG\POWERUP.OBJ|C:\USERS\GARRETH\DOCUMENTS\BOMBERMAN-MULTIVERSEV2\BOMBERMANCLIENT\DEBUG\TEXT.OBJ|C:\USERS\GARRETH\DOCUMENTS\BOMBERMAN-MULTIVERSEV2\BOMBERMANCLIENT\DEBUG\TEXTDX.OBJ|C:\USERS\GARRETH\DOCUMENTS\BOMBERMAN-MULTIVERSEV2\BOMBERMANCLIENT\DEBUG\TEXTUREMANAGER.OBJ|C:\USERS\GARRETH\DOCUMENTS\BOMBERMAN-MULTIVERSEV2\BOMBERMANCLIENT\DEBUG\WINMAIN.OBJ
/OUT:"C:\USERS\GARRETH\DOCUMENTS\BOMBERMAN-MULTIVERSEV2\BOMBERMANCLIENT\DEBUG\BOMBERMANMULTIVERSE.EXE" /NOLOGO /LIBPATH:"C:\Program Files (x86)\Microsoft DirectX SDK (June 2010)\\Lib\x86" d3d9.lib d3dx9.lib winmm.lib xinput.lib kernel32.lib user32.lib gdi32.lib winspool.lib comdlg32.lib advapi32.lib shell32.lib ole32.lib oleaut32.lib uuid.lib odbc32.lib odbccp32.lib /MANIFEST /MANIFESTUAC:"level='asInvoker' uiAccess='false'" /manifest:embed /DEBUG /PDB:"C:\USERS\GARRETH\DOCUMENTS\BOMBERMAN-MULTIVERSEV2\BOMBERMANCLIENT\DEBUG\BOMBERMANMULTIVERSE.PDB" /TLBID:1 /DYNAMICBASE /NXCOMPAT /IMPLIB:"C:\USERS\GARRETH\DOCUMENTS\BOMBERMAN-MULTIVERSEV2\BOMBERMANCLIENT\DEBUG\BOMBERMANMULTIVERSE.LIB" /MACHINE:X86 /SAFESEH DEBUG\NET.OBJDEBUG\AUDIO.OBJDEBUG\BOMB.OBJDEBUG\CONSOLE.OBJDEBUG\DASHBOARD.OBJDEBUG\DESTRUCTIBLEBLOCK.OBJDEBUG\ENTITY.OBJDEBUG\EXPLOSION.OBJDEBUG\GAME.OBJDEBUG\GRAPHICS.OBJDEBUG\INPUTDIALOG.OBJDEBUG\MENU.OBJDEBUG\MESSAGEDIALOG.OBJDEBUG\PLAYER.OBJDEBUG\POWERUP.OBJDEBUG\TEXT.OBJDEBUG\TEXTUREMANAGER.OBJDEBUG\INPUT.OBJDEBUG\BOMBERMAN.OBJDEBUG\IMAGE.OBJDEBUG\TEXTDX.OBJDEBUG\WINMAIN.OBJ
