^C:\USERS\GARRETH\DOCUMENTS\BOMBERMAN-MULTIVERSEV2\AUDIO.CPP
/c /I"C:\Program Files (x86)\Microsoft DirectX SDK (June 2010)\\Include" /ZI /nologo /W3 /WX- /Od /Oy- /D _MBCS /Gm /EHsc /RTC1 /MDd /GS /fp:precise /Zc:wchar_t /Zc:forScope /Fo"DEBUG\\" /Fd"DEBUG\VC120.PDB" /Gd /TP /analyze- C:\USERS\GARRETH\DOCUMENTS\BOMBERMAN-MULTIVERSEV2\AUDIO.CPP
^C:\USERS\GARRETH\DOCUMENTS\BOMBERMAN-MULTIVERSEV2\BOMB.CPP
/c /I"C:\Program Files (x86)\Microsoft DirectX SDK (June 2010)\\Include" /ZI /nologo /W3 /WX- /Od /Oy- /D _MBCS /Gm /EHsc /RTC1 /MDd /GS /fp:precise /Zc:wchar_t /Zc:forScope /Fo"DEBUG\\" /Fd"DEBUG\VC120.PDB" /Gd /TP /analyze- C:\USERS\GARRETH\DOCUMENTS\BOMBERMAN-MULTIVERSEV2\BOMB.CPP
^C:\USERS\GARRETH\DOCUMENTS\BOMBERMAN-MULTIVERSEV2\CONSOLE.CPP
/c /I"C:\Program Files (x86)\Microsoft DirectX SDK (June 2010)\\Include" /ZI /nologo /W3 /WX- /Od /Oy- /D _MBCS /Gm /EHsc /RTC1 /MDd /GS /fp:precise /Zc:wchar_t /Zc:forScope /Fo"DEBUG\\" /Fd"DEBUG\VC120.PDB" /Gd /TP /analyze- C:\USERS\GARRETH\DOCUMENTS\BOMBERMAN-MULTIVERSEV2\CONSOLE.CPP
^C:\USERS\GARRETH\DOCUMENTS\BOMBERMAN-MULTIVERSEV2\DASHBOARD.CPP
/c /I"C:\Program Files (x86)\Microsoft DirectX SDK (June 2010)\\Include" /ZI /nologo /W3 /WX- /Od /Oy- /D _MBCS /Gm /EHsc /RTC1 /MDd /GS /fp:precise /Zc:wchar_t /Zc:forScope /Fo"DEBUG\\" /Fd"DEBUG\VC120.PDB" /Gd /TP /analyze- C:\USERS\GARRETH\DOCUMENTS\BOMBERMAN-MULTIVERSEV2\DASHBOARD.CPP
^C:\USERS\GARRETH\DOCUMENTS\BOMBERMAN-MULTIVERSEV2\DESTRUCTIBLEBLOCK.CPP
/c /I"C:\Program Files (x86)\Microsoft DirectX SDK (June 2010)\\Include" /ZI /nologo /W3 /WX- /Od /Oy- /D _MBCS /Gm /EHsc /RTC1 /MDd /GS /fp:precise /Zc:wchar_t /Zc:forScope /Fo"DEBUG\\" /Fd"DEBUG\VC120.PDB" /Gd /TP /analyze- C:\USERS\GARRETH\DOCUMENTS\BOMBERMAN-MULTIVERSEV2\DESTRUCTIBLEBLOCK.CPP
^C:\USERS\GARRETH\DOCUMENTS\BOMBERMAN-MULTIVERSEV2\ENTITY.CPP
/c /I"C:\Program Files (x86)\Microsoft DirectX SDK (June 2010)\\Include" /ZI /nologo /W3 /WX- /Od /Oy- /D _MBCS /Gm /EHsc /RTC1 /MDd /GS /fp:precise /Zc:wchar_t /Zc:forScope /Fo"DEBUG\\" /Fd"DEBUG\VC120.PDB" /Gd /TP /analyze- C:\USERS\GARRETH\DOCUMENTS\BOMBERMAN-MULTIVERSEV2\ENTITY.CPP
^C:\USERS\GARRETH\DOCUMENTS\BOMBERMAN-MULTIVERSEV2\EXPLOSION.CPP
/c /I"C:\Program Files (x86)\Microsoft DirectX SDK (June 2010)\\Include" /ZI /nologo /W3 /WX- /Od /Oy- /D _MBCS /Gm /EHsc /RTC1 /MDd /GS /fp:precise /Zc:wchar_t /Zc:forScope /Fo"DEBUG\\" /Fd"DEBUG\VC120.PDB" /Gd /TP /analyze- C:\USERS\GARRETH\DOCUMENTS\BOMBERMAN-MULTIVERSEV2\EXPLOSION.CPP
^C:\USERS\GARRETH\DOCUMENTS\BOMBERMAN-MULTIVERSEV2\GAME.CPP
/c /I"C:\Program Files (x86)\Microsoft DirectX SDK (June 2010)\\Include" /ZI /nologo /W3 /WX- /Od /Oy- /D _MBCS /Gm /EHsc /RTC1 /MDd /GS /fp:precise /Zc:wchar_t /Zc:forScope /Fo"DEBUG\\" /Fd"DEBUG\VC120.PDB" /Gd /TP /analyze- C:\USERS\GARRETH\DOCUMENTS\BOMBERMAN-MULTIVERSEV2\GAME.CPP
^C:\USERS\GARRETH\DOCUMENTS\BOMBERMAN-MULTIVERSEV2\GRAPHICS.CPP
/c /I"C:\Program Files (x86)\Microsoft DirectX SDK (June 2010)\\Include" /ZI /nologo /W3 /WX- /Od /Oy- /D _MBCS /Gm /EHsc /RTC1 /MDd /GS /fp:precise /Zc:wchar_t /Zc:forScope /Fo"DEBUG\\" /Fd"DEBUG\VC120.PDB" /Gd /TP /analyze- C:\USERS\GARRETH\DOCUMENTS\BOMBERMAN-MULTIVERSEV2\GRAPHICS.CPP
^C:\USERS\GARRETH\DOCUMENTS\BOMBERMAN-MULTIVERSEV2\INPUTDIALOG.CPP
/c /I"C:\Program Files (x86)\Microsoft DirectX SDK (June 2010)\\Include" /ZI /nologo /W3 /WX- /Od /Oy- /D _MBCS /Gm /EHsc /RTC1 /MDd /GS /fp:precise /Zc:wchar_t /Zc:forScope /Fo"DEBUG\\" /Fd"DEBUG\VC120.PDB" /Gd /TP /analyze- C:\USERS\GARRETH\DOCUMENTS\BOMBERMAN-MULTIVERSEV2\INPUTDIALOG.CPP
^C:\USERS\GARRETH\DOCUMENTS\BOMBERMAN-MULTIVERSEV2\MENU.CPP
/c /I"C:\Program Files (x86)\Microsoft DirectX SDK (June 2010)\\Include" /ZI /nologo /W3 /WX- /Od /Oy- /D _MBCS /Gm /EHsc /RTC1 /MDd /GS /fp:precise /Zc:wchar_t /Zc:forScope /Fo"DEBUG\\" /Fd"DEBUG\VC120.PDB" /Gd /TP /analyze- C:\USERS\GARRETH\DOCUMENTS\BOMBERMAN-MULTIVERSEV2\MENU.CPP
^C:\USERS\GARRETH\DOCUMENTS\BOMBERMAN-MULTIVERSEV2\MESSAGEDIALOG.CPP
/c /I"C:\Program Files (x86)\Microsoft DirectX SDK (June 2010)\\Include" /ZI /nologo /W3 /WX- /Od /Oy- /D _MBCS /Gm /EHsc /RTC1 /MDd /GS /fp:precise /Zc:wchar_t /Zc:forScope /Fo"DEBUG\\" /Fd"DEBUG\VC120.PDB" /Gd /TP /analyze- C:\USERS\GARRETH\DOCUMENTS\BOMBERMAN-MULTIVERSEV2\MESSAGEDIALOG.CPP
^C:\USERS\GARRETH\DOCUMENTS\BOMBERMAN-MULTIVERSEV2\PLAYER.CPP
/c /I"C:\Program Files (x86)\Microsoft DirectX SDK (June 2010)\\Include" /ZI /nologo /W3 /WX- /Od /Oy- /D _MBCS /Gm /EHsc /RTC1 /MDd /GS /fp:precise /Zc:wchar_t /Zc:forScope /Fo"DEBUG\\" /Fd"DEBUG\VC120.PDB" /Gd /TP /analyze- C:\USERS\GARRETH\DOCUMENTS\BOMBERMAN-MULTIVERSEV2\PLAYER.CPP
^C:\USERS\GARRETH\DOCUMENTS\BOMBERMAN-MULTIVERSEV2\POWERUP.CPP
/c /I"C:\Program Files (x86)\Microsoft DirectX SDK (June 2010)\\Include" /ZI /nologo /W3 /WX- /Od /Oy- /D _MBCS /Gm /EHsc /RTC1 /MDd /GS /fp:precise /Zc:wchar_t /Zc:forScope /Fo"DEBUG\\" /Fd"DEBUG\VC120.PDB" /Gd /TP /analyze- C:\USERS\GARRETH\DOCUMENTS\BOMBERMAN-MULTIVERSEV2\POWERUP.CPP
^C:\USERS\GARRETH\DOCUMENTS\BOMBERMAN-MULTIVERSEV2\TEXT.CPP
/c /I"C:\Program Files (x86)\Microsoft DirectX SDK (June 2010)\\Include" /ZI /nologo /W3 /WX- /Od /Oy- /D _MBCS /Gm /EHsc /RTC1 /MDd /GS /fp:precise /Zc:wchar_t /Zc:forScope /Fo"DEBUG\\" /Fd"DEBUG\VC120.PDB" /Gd /TP /analyze- C:\USERS\GARRETH\DOCUMENTS\BOMBERMAN-MULTIVERSEV2\TEXT.CPP
^C:\USERS\GARRETH\DOCUMENTS\BOMBERMAN-MULTIVERSEV2\TEXTUREMANAGER.CPP
/c /I"C:\Program Files (x86)\Microsoft DirectX SDK (June 2010)\\Include" /ZI /nologo /W3 /WX- /Od /Oy- /D _MBCS /Gm /EHsc /RTC1 /MDd /GS /fp:precise /Zc:wchar_t /Zc:forScope /Fo"DEBUG\\" /Fd"DEBUG\VC120.PDB" /Gd /TP /analyze- C:\USERS\GARRETH\DOCUMENTS\BOMBERMAN-MULTIVERSEV2\TEXTUREMANAGER.CPP
^C:\USERS\GARRETH\DOCUMENTS\BOMBERMAN-MULTIVERSEV2\INPUT.CPP
/c /I"C:\Program Files (x86)\Microsoft DirectX SDK (June 2010)\\Include" /ZI /nologo /W3 /WX- /Od /Oy- /D _MBCS /Gm /EHsc /RTC1 /MDd /GS /fp:precise /Zc:wchar_t /Zc:forScope /Fo"DEBUG\\" /Fd"DEBUG\VC120.PDB" /Gd /TP /analyze- C:\USERS\GARRETH\DOCUMENTS\BOMBERMAN-MULTIVERSEV2\INPUT.CPP
^C:\USERS\GARRETH\DOCUMENTS\BOMBERMAN-MULTIVERSEV2\BOMBERMAN.CPP
/c /I"C:\Program Files (x86)\Microsoft DirectX SDK (June 2010)\\Include" /ZI /nologo /W3 /WX- /Od /Oy- /D _MBCS /Gm /EHsc /RTC1 /MDd /GS /fp:precise /Zc:wchar_t /Zc:forScope /Fo"DEBUG\\" /Fd"DEBUG\VC120.PDB" /Gd /TP /analyze- C:\USERS\GARRETH\DOCUMENTS\BOMBERMAN-MULTIVERSEV2\BOMBERMAN.CPP
^C:\USERS\GARRETH\DOCUMENTS\BOMBERMAN-MULTIVERSEV2\IMAGE.CPP
/c /I"C:\Program Files (x86)\Microsoft DirectX SDK (June 2010)\\Include" /ZI /nologo /W3 /WX- /Od /Oy- /D _MBCS /Gm /EHsc /RTC1 /MDd /GS /fp:precise /Zc:wchar_t /Zc:forScope /Fo"DEBUG\\" /Fd"DEBUG\VC120.PDB" /Gd /TP /analyze- C:\USERS\GARRETH\DOCUMENTS\BOMBERMAN-MULTIVERSEV2\IMAGE.CPP
^C:\USERS\GARRETH\DOCUMENTS\BOMBERMAN-MULTIVERSEV2\TEXTDX.CPP
/c /I"C:\Program Files (x86)\Microsoft DirectX SDK (June 2010)\\Include" /ZI /nologo /W3 /WX- /Od /Oy- /D _MBCS /Gm /EHsc /RTC1 /MDd /GS /fp:precise /Zc:wchar_t /Zc:forScope /Fo"DEBUG\\" /Fd"DEBUG\VC120.PDB" /Gd /TP /analyze- C:\USERS\GARRETH\DOCUMENTS\BOMBERMAN-MULTIVERSEV2\TEXTDX.CPP
^C:\USERS\GARRETH\DOCUMENTS\BOMBERMAN-MULTIVERSEV2\WINMAIN.CPP
/c /I"C:\Program Files (x86)\Microsoft DirectX SDK (June 2010)\\Include" /ZI /nologo /W3 /WX- /Od /Oy- /D _MBCS /Gm /EHsc /RTC1 /MDd /GS /fp:precise /Zc:wchar_t /Zc:forScope /Fo"DEBUG\\" /Fd"DEBUG\VC120.PDB" /Gd /TP /analyze- C:\USERS\GARRETH\DOCUMENTS\BOMBERMAN-MULTIVERSEV2\WINMAIN.CPP
^C:\USERS\GARRETH\DESKTOP\SPACEWARSERVER\NET.CPP
/c /I"C:\Program Files (x86)\Microsoft DirectX SDK (June 2010)\\Include" /ZI /nologo /W3 /WX- /Od /Oy- /D _MBCS /Gm /EHsc /RTC1 /MDd /GS /fp:precise /Zc:wchar_t /Zc:forScope /Fo"DEBUG\\" /Fd"DEBUG\VC120.PDB" /Gd /TP /analyze- C:\USERS\GARRETH\DESKTOP\SPACEWARSERVER\NET.CPP
^C:\USERS\GARRETH\DOCUMENTS\DESKTOP\SPACEWARSERVER\NET.CPP
/c /I"C:\Program Files (x86)\Microsoft DirectX SDK (June 2010)\\Include" /ZI /nologo /W3 /WX- /Od /Oy- /D _MBCS /Gm /EHsc /RTC1 /MDd /GS /fp:precise /Zc:wchar_t /Zc:forScope /Fo"DEBUG\\" /Fd"DEBUG\VC120.PDB" /Gd /TP /analyze- C:\USERS\GARRETH\DOCUMENTS\DESKTOP\SPACEWARSERVER\NET.CPP
^C:\USERS\GARRETH\DOCUMENTS\BOMBERMAN-MULTIVERSEV2\BOMBERMANSERVER\AUDIO.CPP
/c /I"C:\Program Files (x86)\Microsoft DirectX SDK (June 2010)\\Include" /ZI /nologo /W3 /WX- /Od /Oy- /D _MBCS /Gm /EHsc /RTC1 /MDd /GS /fp:precise /Zc:wchar_t /Zc:forScope /Fo"DEBUG\\" /Fd"DEBUG\VC120.PDB" /Gd /TP /analyze- C:\USERS\GARRETH\DOCUMENTS\BOMBERMAN-MULTIVERSEV2\BOMBERMANSERVER\AUDIO.CPP
^C:\USERS\GARRETH\DOCUMENTS\BOMBERMAN-MULTIVERSEV2\BOMBERMANSERVER\BOMB.CPP
/c /I"C:\Program Files (x86)\Microsoft DirectX SDK (June 2010)\\Include" /ZI /nologo /W3 /WX- /Od /Oy- /D _MBCS /Gm /EHsc /RTC1 /MDd /GS /fp:precise /Zc:wchar_t /Zc:forScope /Fo"DEBUG\\" /Fd"DEBUG\VC120.PDB" /Gd /TP /analyze- C:\USERS\GARRETH\DOCUMENTS\BOMBERMAN-MULTIVERSEV2\BOMBERMANSERVER\BOMB.CPP
^C:\USERS\GARRETH\DOCUMENTS\BOMBERMAN-MULTIVERSEV2\BOMBERMANSERVER\CONSOLE.CPP
/c /I"C:\Program Files (x86)\Microsoft DirectX SDK (June 2010)\\Include" /ZI /nologo /W3 /WX- /Od /Oy- /D _MBCS /Gm /EHsc /RTC1 /MDd /GS /fp:precise /Zc:wchar_t /Zc:forScope /Fo"DEBUG\\" /Fd"DEBUG\VC120.PDB" /Gd /TP /analyze- C:\USERS\GARRETH\DOCUMENTS\BOMBERMAN-MULTIVERSEV2\BOMBERMANSERVER\CONSOLE.CPP
^C:\USERS\GARRETH\DOCUMENTS\BOMBERMAN-MULTIVERSEV2\BOMBERMANSERVER\DASHBOARD.CPP
/c /I"C:\Program Files (x86)\Microsoft DirectX SDK (June 2010)\\Include" /ZI /nologo /W3 /WX- /Od /Oy- /D _MBCS /Gm /EHsc /RTC1 /MDd /GS /fp:precise /Zc:wchar_t /Zc:forScope /Fo"DEBUG\\" /Fd"DEBUG\VC120.PDB" /Gd /TP /analyze- C:\USERS\GARRETH\DOCUMENTS\BOMBERMAN-MULTIVERSEV2\BOMBERMANSERVER\DASHBOARD.CPP
^C:\USERS\GARRETH\DOCUMENTS\BOMBERMAN-MULTIVERSEV2\BOMBERMANSERVER\DESTRUCTIBLEBLOCK.CPP
/c /I"C:\Program Files (x86)\Microsoft DirectX SDK (June 2010)\\Include" /ZI /nologo /W3 /WX- /Od /Oy- /D _MBCS /Gm /EHsc /RTC1 /MDd /GS /fp:precise /Zc:wchar_t /Zc:forScope /Fo"DEBUG\\" /Fd"DEBUG\VC120.PDB" /Gd /TP /analyze- C:\USERS\GARRETH\DOCUMENTS\BOMBERMAN-MULTIVERSEV2\BOMBERMANSERVER\DESTRUCTIBLEBLOCK.CPP
^C:\USERS\GARRETH\DOCUMENTS\BOMBERMAN-MULTIVERSEV2\BOMBERMANSERVER\ENTITY.CPP
/c /I"C:\Program Files (x86)\Microsoft DirectX SDK (June 2010)\\Include" /ZI /nologo /W3 /WX- /Od /Oy- /D _MBCS /Gm /EHsc /RTC1 /MDd /GS /fp:precise /Zc:wchar_t /Zc:forScope /Fo"DEBUG\\" /Fd"DEBUG\VC120.PDB" /Gd /TP /analyze- C:\USERS\GARRETH\DOCUMENTS\BOMBERMAN-MULTIVERSEV2\BOMBERMANSERVER\ENTITY.CPP
^C:\USERS\GARRETH\DOCUMENTS\BOMBERMAN-MULTIVERSEV2\BOMBERMANSERVER\EXPLOSION.CPP
/c /I"C:\Program Files (x86)\Microsoft DirectX SDK (June 2010)\\Include" /ZI /nologo /W3 /WX- /Od /Oy- /D _MBCS /Gm /EHsc /RTC1 /MDd /GS /fp:precise /Zc:wchar_t /Zc:forScope /Fo"DEBUG\\" /Fd"DEBUG\VC120.PDB" /Gd /TP /analyze- C:\USERS\GARRETH\DOCUMENTS\BOMBERMAN-MULTIVERSEV2\BOMBERMANSERVER\EXPLOSION.CPP
^C:\USERS\GARRETH\DOCUMENTS\BOMBERMAN-MULTIVERSEV2\BOMBERMANSERVER\GAME.CPP
/c /I"C:\Program Files (x86)\Microsoft DirectX SDK (June 2010)\\Include" /ZI /nologo /W3 /WX- /Od /Oy- /D _MBCS /Gm /EHsc /RTC1 /MDd /GS /fp:precise /Zc:wchar_t /Zc:forScope /Fo"DEBUG\\" /Fd"DEBUG\VC120.PDB" /Gd /TP /analyze- C:\USERS\GARRETH\DOCUMENTS\BOMBERMAN-MULTIVERSEV2\BOMBERMANSERVER\GAME.CPP
^C:\USERS\GARRETH\DOCUMENTS\BOMBERMAN-MULTIVERSEV2\BOMBERMANSERVER\GRAPHICS.CPP
/c /I"C:\Program Files (x86)\Microsoft DirectX SDK (June 2010)\\Include" /ZI /nologo /W3 /WX- /Od /Oy- /D _MBCS /Gm /EHsc /RTC1 /MDd /GS /fp:precise /Zc:wchar_t /Zc:forScope /Fo"DEBUG\\" /Fd"DEBUG\VC120.PDB" /Gd /TP /analyze- C:\USERS\GARRETH\DOCUMENTS\BOMBERMAN-MULTIVERSEV2\BOMBERMANSERVER\GRAPHICS.CPP
^C:\USERS\GARRETH\DOCUMENTS\BOMBERMAN-MULTIVERSEV2\BOMBERMANSERVER\INPUTDIALOG.CPP
/c /I"C:\Program Files (x86)\Microsoft DirectX SDK (June 2010)\\Include" /ZI /nologo /W3 /WX- /Od /Oy- /D _MBCS /Gm /EHsc /RTC1 /MDd /GS /fp:precise /Zc:wchar_t /Zc:forScope /Fo"DEBUG\\" /Fd"DEBUG\VC120.PDB" /Gd /TP /analyze- C:\USERS\GARRETH\DOCUMENTS\BOMBERMAN-MULTIVERSEV2\BOMBERMANSERVER\INPUTDIALOG.CPP
^C:\USERS\GARRETH\DOCUMENTS\BOMBERMAN-MULTIVERSEV2\BOMBERMANSERVER\MENU.CPP
/c /I"C:\Program Files (x86)\Microsoft DirectX SDK (June 2010)\\Include" /ZI /nologo /W3 /WX- /Od /Oy- /D _MBCS /Gm /EHsc /RTC1 /MDd /GS /fp:precise /Zc:wchar_t /Zc:forScope /Fo"DEBUG\\" /Fd"DEBUG\VC120.PDB" /Gd /TP /analyze- C:\USERS\GARRETH\DOCUMENTS\BOMBERMAN-MULTIVERSEV2\BOMBERMANSERVER\MENU.CPP
^C:\USERS\GARRETH\DOCUMENTS\BOMBERMAN-MULTIVERSEV2\BOMBERMANSERVER\MESSAGEDIALOG.CPP
/c /I"C:\Program Files (x86)\Microsoft DirectX SDK (June 2010)\\Include" /ZI /nologo /W3 /WX- /Od /Oy- /D _MBCS /Gm /EHsc /RTC1 /MDd /GS /fp:precise /Zc:wchar_t /Zc:forScope /Fo"DEBUG\\" /Fd"DEBUG\VC120.PDB" /Gd /TP /analyze- C:\USERS\GARRETH\DOCUMENTS\BOMBERMAN-MULTIVERSEV2\BOMBERMANSERVER\MESSAGEDIALOG.CPP
^C:\USERS\GARRETH\DOCUMENTS\BOMBERMAN-MULTIVERSEV2\BOMBERMANSERVER\PLAYER.CPP
/c /I"C:\Program Files (x86)\Microsoft DirectX SDK (June 2010)\\Include" /ZI /nologo /W3 /WX- /Od /Oy- /D _MBCS /Gm /EHsc /RTC1 /MDd /GS /fp:precise /Zc:wchar_t /Zc:forScope /Fo"DEBUG\\" /Fd"DEBUG\VC120.PDB" /Gd /TP /analyze- C:\USERS\GARRETH\DOCUMENTS\BOMBERMAN-MULTIVERSEV2\BOMBERMANSERVER\PLAYER.CPP
^C:\USERS\GARRETH\DOCUMENTS\BOMBERMAN-MULTIVERSEV2\BOMBERMANSERVER\POWERUP.CPP
/c /I"C:\Program Files (x86)\Microsoft DirectX SDK (June 2010)\\Include" /ZI /nologo /W3 /WX- /Od /Oy- /D _MBCS /Gm /EHsc /RTC1 /MDd /GS /fp:precise /Zc:wchar_t /Zc:forScope /Fo"DEBUG\\" /Fd"DEBUG\VC120.PDB" /Gd /TP /analyze- C:\USERS\GARRETH\DOCUMENTS\BOMBERMAN-MULTIVERSEV2\BOMBERMANSERVER\POWERUP.CPP
^C:\USERS\GARRETH\DOCUMENTS\BOMBERMAN-MULTIVERSEV2\BOMBERMANSERVER\TEXT.CPP
/c /I"C:\Program Files (x86)\Microsoft DirectX SDK (June 2010)\\Include" /ZI /nologo /W3 /WX- /Od /Oy- /D _MBCS /Gm /EHsc /RTC1 /MDd /GS /fp:precise /Zc:wchar_t /Zc:forScope /Fo"DEBUG\\" /Fd"DEBUG\VC120.PDB" /Gd /TP /analyze- C:\USERS\GARRETH\DOCUMENTS\BOMBERMAN-MULTIVERSEV2\BOMBERMANSERVER\TEXT.CPP
^C:\USERS\GARRETH\DOCUMENTS\BOMBERMAN-MULTIVERSEV2\BOMBERMANSERVER\TEXTUREMANAGER.CPP
/c /I"C:\Program Files (x86)\Microsoft DirectX SDK (June 2010)\\Include" /ZI /nologo /W3 /WX- /Od /Oy- /D _MBCS /Gm /EHsc /RTC1 /MDd /GS /fp:precise /Zc:wchar_t /Zc:forScope /Fo"DEBUG\\" /Fd"DEBUG\VC120.PDB" /Gd /TP /analyze- C:\USERS\GARRETH\DOCUMENTS\BOMBERMAN-MULTIVERSEV2\BOMBERMANSERVER\TEXTUREMANAGER.CPP
^C:\USERS\GARRETH\DOCUMENTS\BOMBERMAN-MULTIVERSEV2\BOMBERMANSERVER\INPUT.CPP
/c /I"C:\Program Files (x86)\Microsoft DirectX SDK (June 2010)\\Include" /ZI /nologo /W3 /WX- /Od /Oy- /D _MBCS /Gm /EHsc /RTC1 /MDd /GS /fp:precise /Zc:wchar_t /Zc:forScope /Fo"DEBUG\\" /Fd"DEBUG\VC120.PDB" /Gd /TP /analyze- C:\USERS\GARRETH\DOCUMENTS\BOMBERMAN-MULTIVERSEV2\BOMBERMANSERVER\INPUT.CPP
^C:\USERS\GARRETH\DOCUMENTS\BOMBERMAN-MULTIVERSEV2\BOMBERMANSERVER\BOMBERMAN.CPP
/c /I"C:\Program Files (x86)\Microsoft DirectX SDK (June 2010)\\Include" /ZI /nologo /W3 /WX- /Od /Oy- /D _MBCS /Gm /EHsc /RTC1 /MDd /GS /fp:precise /Zc:wchar_t /Zc:forScope /Fo"DEBUG\\" /Fd"DEBUG\VC120.PDB" /Gd /TP /analyze- C:\USERS\GARRETH\DOCUMENTS\BOMBERMAN-MULTIVERSEV2\BOMBERMANSERVER\BOMBERMAN.CPP
^C:\USERS\GARRETH\DOCUMENTS\BOMBERMAN-MULTIVERSEV2\BOMBERMANSERVER\IMAGE.CPP
/c /I"C:\Program Files (x86)\Microsoft DirectX SDK (June 2010)\\Include" /ZI /nologo /W3 /WX- /Od /Oy- /D _MBCS /Gm /EHsc /RTC1 /MDd /GS /fp:precise /Zc:wchar_t /Zc:forScope /Fo"DEBUG\\" /Fd"DEBUG\VC120.PDB" /Gd /TP /analyze- C:\USERS\GARRETH\DOCUMENTS\BOMBERMAN-MULTIVERSEV2\BOMBERMANSERVER\IMAGE.CPP
^C:\USERS\GARRETH\DOCUMENTS\BOMBERMAN-MULTIVERSEV2\BOMBERMANSERVER\TEXTDX.CPP
/c /I"C:\Program Files (x86)\Microsoft DirectX SDK (June 2010)\\Include" /ZI /nologo /W3 /WX- /Od /Oy- /D _MBCS /Gm /EHsc /RTC1 /MDd /GS /fp:precise /Zc:wchar_t /Zc:forScope /Fo"DEBUG\\" /Fd"DEBUG\VC120.PDB" /Gd /TP /analyze- C:\USERS\GARRETH\DOCUMENTS\BOMBERMAN-MULTIVERSEV2\BOMBERMANSERVER\TEXTDX.CPP
^C:\USERS\GARRETH\DOCUMENTS\BOMBERMAN-MULTIVERSEV2\BOMBERMANSERVER\WINMAIN.CPP
/c /I"C:\Program Files (x86)\Microsoft DirectX SDK (June 2010)\\Include" /ZI /nologo /W3 /WX- /Od /Oy- /D _MBCS /Gm /EHsc /RTC1 /MDd /GS /fp:precise /Zc:wchar_t /Zc:forScope /Fo"DEBUG\\" /Fd"DEBUG\VC120.PDB" /Gd /TP /analyze- C:\USERS\GARRETH\DOCUMENTS\BOMBERMAN-MULTIVERSEV2\BOMBERMANSERVER\WINMAIN.CPP
